<?xml version="1.0" standalone="no"?>
<!DOCTYPE svg PUBLIC "-//W3C//DTD SVG 1.1//EN" "http://www.w3.org/Graphics/SVG/1.1/DTD/svg11.dtd" >
<svg xmlns="http://www.w3.org/2000/svg">
<metadata></metadata>
<defs>
<font id="proxima_novabold_italic" horiz-adv-x="560" >
<font-face units-per-em="2048" ascent="1618" descent="-430" />
<missing-glyph horiz-adv-x="500" />
<glyph horiz-adv-x="0" />
<glyph horiz-adv-x="0" />
<glyph horiz-adv-x="682" />
<glyph unicode="&#xd;" horiz-adv-x="0" />
<glyph unicode=" " />
<glyph unicode="!" d="M17 138q0 51 27 96t72 71t97 26q67 0 113 -48t46 -116q0 -79 -57 -136.5t-135 -57.5q-67 0 -115 48.5t-48 116.5zM142 475l174 987h335l-264 -987h-245z" />
<glyph unicode="&#x22;" horiz-adv-x="889" d="M247 822q18 441 21 484q0 75 50 126t123 51q55 0 94.5 -39.5t39.5 -98.5q0 -17 -16 -65l-189 -458h-123zM646 822q18 441 21 484q1 50 23.5 90.5t61.5 63.5t87 23q55 0 94.5 -39.5t39.5 -98.5q0 -35 -15 -65l-189 -458h-123z" />
<glyph unicode="#" horiz-adv-x="1353" d="M0 370l96 178h213l201 364h-211l92 175h218l206 375h206l-206 -375h206l206 375h208l-210 -375h215l-92 -175h-219l-202 -364h221l-94 -178h-226l-203 -370h-209l209 370h-209l-205 -370h-207l209 370h-213zM517 548h204l201 364h-205z" />
<glyph unicode="$" horiz-adv-x="1344" d="M17 245l194 228q53 -71 134 -124t178 -79l77 343q-46 18 -81 33t-77.5 37.5t-73.5 44.5t-61.5 52.5t-50 63.5t-31.5 75t-12 89q0 91 39 176t110 152t181 107t241 40h9l44 200h208l-50 -224q112 -26 207.5 -81t162.5 -131l-192 -219q-87 101 -240 153l-70 -311 q41 -15 72.5 -29t69.5 -32t67 -37t59 -43t51.5 -51t39 -58t26 -68.5t8.5 -78.5q0 -81 -25 -155.5t-74 -137t-118 -109t-161 -72.5t-199 -26h-15l-41 -192h-209l48 215q-144 29 -261 94.5t-184 154.5zM541 1065q0 -26 17.5 -48t44.5 -38.5t70 -35.5l59 271q-81 -1 -136 -45.5 t-55 -103.5zM725 245q50 3 89 19t62 40.5t34.5 52t11.5 55.5q0 39 -34.5 70t-98.5 59z" />
<glyph unicode="%" horiz-adv-x="1658" d="M167 0l1255 1462h167l-1258 -1462h-164zM180 1058q0 93 33 173.5t88 135t129 85.5t155 31q94 0 172.5 -35.5t127 -105.5t48.5 -161q0 -93 -32.5 -173t-87.5 -135t-129 -86t-155 -31q-95 0 -173.5 35.5t-127 105.5t-48.5 161zM377 1076q0 -64 45 -106.5t115 -42.5 q83 0 141 65.5t58 168.5q0 65 -44.5 107.5t-114.5 42.5q-83 0 -141.5 -65.5t-58.5 -169.5zM809 278q0 93 33 173.5t89 135t129.5 85.5t153.5 31q95 0 175 -36t128.5 -106.5t48.5 -161.5q0 -93 -33 -173.5t-88.5 -135t-129.5 -86t-154 -31.5q-95 0 -174.5 36.5t-128.5 107 t-49 161.5zM1010 295q0 -66 43.5 -108.5t112.5 -42.5q84 0 142.5 66.5t58.5 170.5q0 64 -44.5 107t-113.5 43q-54 0 -99.5 -29.5t-72.5 -83.5t-27 -123z" />
<glyph unicode="&#x26;" horiz-adv-x="1415" d="M11 360q0 82 23.5 151t60.5 117.5t94 90.5t112.5 69.5t127.5 54.5q-36 117 -36 231t59 208t161 147.5t224 53.5q76 0 144.5 -19t121.5 -55.5t84.5 -94t31.5 -128.5q0 -54 -14.5 -100.5t-35 -81.5t-59 -67.5t-71 -53.5t-87 -45t-90.5 -37.5t-97 -35.5q38 -77 81 -150 q78 -139 101 -176q122 131 197 266l199 -124q-145 -204 -278 -332q65 -100 175 -249h-330l-61 81q-185 -108 -364 -108q-102 0 -186.5 23t-150 69t-101.5 121t-36 174zM316 393q0 -96 61 -148t154 -52q91 0 197 64q-89 131 -123 197q-78 147 -105 205q-88 -48 -136 -111.5 t-48 -154.5zM673 1076q0 -66 24 -145q51 17 87.5 32.5t73.5 36t59.5 43t36.5 52t14 64.5q0 60 -33 91.5t-86 31.5q-69 0 -122.5 -55t-53.5 -151z" />
<glyph unicode="'" horiz-adv-x="492" d="M247 822q18 441 21 484q0 75 50 126t123 51q55 0 94.5 -39.5t39.5 -98.5q0 -17 -16 -65l-189 -458h-123z" />
<glyph unicode="(" horiz-adv-x="650" d="M50 234q0 342 160.5 679t437.5 588l147 -149q-215 -258 -332.5 -564t-117.5 -631q0 -230 82 -477l-201 -117q-86 128 -131 304t-45 367z" />
<glyph unicode=")" horiz-adv-x="650" d="M-147 -287q215 259 333.5 564.5t118.5 627.5q0 116 -23 242t-61 238l202 116q56 -85 95.5 -195t59.5 -231t20 -245q0 -341 -160.5 -678.5t-439.5 -588.5z" />
<glyph unicode="*" horiz-adv-x="768" d="M167 1071l234 84l-186 131l94 110l174 -149l40 236h141l-68 -247l232 105l40 -127l-232 -85l186 -130l-99 -110l-171 150l-39 -237h-143l69 250l-232 -105z" />
<glyph unicode="+" horiz-adv-x="1104" d="M90 653l37 173h394l94 427h192l-94 -427h393l-39 -173h-394l-98 -444h-190l100 444h-395z" />
<glyph unicode="," d="M-40 -184q67 29 129 79.5t86 104.5h-24q-56 0 -95 37.5t-39 104.5q0 76 59.5 132.5t134.5 56.5q71 0 120.5 -47.5t49.5 -132.5q0 -124 -92 -247.5t-230 -190.5z" />
<glyph unicode="-" horiz-adv-x="656" d="M37 412l53 236h525l-52 -236h-526z" />
<glyph unicode="." d="M17 138q0 51 27 96t72 71t97 26q67 0 113 -48t46 -116q0 -79 -57 -136.5t-135 -57.5q-67 0 -115 48.5t-48 116.5z" />
<glyph unicode="/" horiz-adv-x="720" d="M-132 -44l862 1549h211l-864 -1549h-209z" />
<glyph unicode="0" horiz-adv-x="1357" d="M94 563q0 141 34 277t98.5 251.5t152 203.5t202.5 138t241 50q241 0 382 -154t141 -432q0 -141 -33 -277.5t-97.5 -252.5t-151 -204.5t-200.5 -139t-240 -50.5q-119 0 -217 39.5t-167 114t-107 186t-38 250.5zM410 548q0 -138 59 -218.5t182 -80.5q70 0 132.5 41.5 t107 110t77 155t49 178t16.5 178.5q0 66 -14 119t-42.5 93t-76 61.5t-109.5 21.5q-70 0 -132.5 -41.5t-107 -109.5t-77 -154t-48.5 -177t-16 -177z" />
<glyph unicode="1" horiz-adv-x="899" d="M125 999l563 463h272l-322 -1462h-312l233 1060l-296 -247z" />
<glyph unicode="2" horiz-adv-x="1313" d="M-15 0l63 289q106 60 177.5 101t157 91.5t142 86t120.5 77.5t105 73.5t83.5 68t67.5 66.5t46.5 62t30.5 62.5t9 61.5q0 51 -34 90t-93.5 59.5t-136.5 20.5q-210 0 -363 -130l-132 223q98 84 235.5 132.5t281.5 48.5q75 0 146 -12.5t134.5 -36t116 -60t91 -82.5t59.5 -106 t21 -128q0 -85 -36 -169t-100 -160.5t-161.5 -155t-211 -150.5t-256.5 -149h596l-59 -274h-1100z" />
<glyph unicode="3" horiz-adv-x="1286" d="M-29 278l209 189q44 -70 117.5 -120.5t152.5 -74t157 -23.5q125 0 193 57t68 146q0 33 -14 60t-44 48t-83.5 33t-126.5 12q-128 0 -177 -5l64 281q24 -3 203 -3q86 0 147.5 16.5t99.5 55t38 98.5q0 36 -19.5 65.5t-56 50t-90.5 32t-121 11.5q-207 0 -355 -118l-112 213 q93 84 223.5 132.5t274.5 48.5q130 0 237 -26t182.5 -74t117 -120t41.5 -161q0 -71 -34.5 -135.5t-91 -110.5t-126.5 -76t-142 -40q59 -14 106.5 -39.5t85.5 -64t59 -93.5t21 -122q0 -127 -75.5 -230t-204.5 -160.5t-284 -57.5q-135 0 -260 35t-226 105t-154 165z" />
<glyph unicode="4" horiz-adv-x="1307" d="M2 303l61 272l759 887h447l-195 -885h186l-59 -274h-189l-65 -303h-311l65 303h-699zM366 577h395l136 609z" />
<glyph unicode="5" horiz-adv-x="1332" d="M40 255l221 197q60 -97 160 -150t232 -53q125 0 200.5 69t75.5 169q0 62 -35 107t-96.5 67.5t-144.5 22.5q-84 0 -144.5 -20.5t-123.5 -67.5l-201 81l173 785h1004l-59 -274h-695l-74 -345q40 32 81.5 52.5t94 31.5t115.5 11q89 0 167.5 -28t137.5 -79.5t93 -131 t34 -176.5q0 -112 -44.5 -212.5t-123 -175t-193 -118.5t-247.5 -44q-209 0 -362.5 73t-245.5 209z" />
<glyph unicode="6" horiz-adv-x="1332" d="M86 539q0 119 23 234.5t67.5 220.5t112.5 194.5t153 155t195 102.5t233 37q157 0 281 -52t210 -147l-193 -219q-52 68 -135.5 105t-179.5 37q-78 0 -147 -30.5t-119 -82.5t-86.5 -114t-57.5 -131q-8 -15 -20 -58q61 64 165.5 109t213.5 45q131 0 235.5 -48.5t166 -141 t61.5 -214.5q0 -91 -31 -177.5t-87 -156.5t-130.5 -123t-167 -82t-190.5 -29q-270 0 -421.5 149.5t-151.5 416.5zM391 508q0 -118 75 -188.5t193 -70.5q120 0 201 73.5t81 179.5q0 58 -38.5 102t-102.5 67t-143 23q-144 0 -264 -111q-2 -15 -2 -75z" />
<glyph unicode="7" horiz-adv-x="1194" d="M136 0l780 1188h-719l60 274h1098l-49 -218l-813 -1244h-357z" />
<glyph unicode="8" horiz-adv-x="1327" d="M31 366q0 144 107 257t299 161q-95 43 -157.5 120.5t-62.5 174.5q0 82 34 150.5t90 114.5t130.5 78t155 46.5t164.5 14.5q85 0 166 -14t154.5 -44t129 -73.5t88 -106t32.5 -136.5q0 -143 -104 -246.5t-275 -137.5q109 -58 176 -143.5t67 -186.5q0 -78 -32.5 -146.5 t-89 -118t-132.5 -85.5t-164 -54t-182 -18t-180 14.5t-162 45.5t-131.5 76t-88 111t-32.5 146zM362 414q0 -83 75 -128t201 -45q70 0 132 22t101 64.5t39 95.5q0 45 -35.5 86t-86 66.5t-109.5 39.5q-66 -3 -123.5 -18.5t-100.5 -40.5t-68 -61.5t-25 -80.5zM529 1045 q0 -30 19 -58.5t50 -50t67.5 -38t72.5 -24.5q130 8 208.5 56t78.5 124q0 69 -73 114.5t-181 45.5q-99 0 -170.5 -46.5t-71.5 -122.5z" />
<glyph unicode="9" horiz-adv-x="1332" d="M57 173l190 222q50 -69 133.5 -105.5t184.5 -36.5q77 0 145 30t118.5 81.5t87 113t59.5 131.5q17 50 18 60q-64 -66 -167.5 -111t-212.5 -45q-131 0 -236 48.5t-166.5 141.5t-61.5 215q0 114 48.5 219t130.5 181.5t194.5 122t233.5 45.5q271 0 422.5 -149t151.5 -417 q0 -101 -16.5 -201t-50.5 -193t-82.5 -176t-114.5 -151.5t-144 -118.5t-175 -77.5t-203 -27.5q-157 0 -279.5 52t-207.5 146zM475 958q0 -87 81 -140t200 -53q149 0 267 109q2 15 2 75q0 119 -75 189.5t-194 70.5t-200 -73.5t-81 -177.5z" />
<glyph unicode=":" d="M17 138q0 51 27 96t72 71t97 26q67 0 113 -48t46 -116q0 -79 -57 -136.5t-135 -57.5q-67 0 -115 48.5t-48 116.5zM182 883q0 78 57.5 134.5t134.5 56.5q69 0 116 -47.5t47 -114.5q0 -79 -58.5 -136t-137.5 -57q-67 0 -113 48t-46 116z" />
<glyph unicode=";" d="M-40 -184q67 29 129 79.5t86 104.5h-24q-56 0 -95 37.5t-39 104.5q0 76 59.5 132.5t134.5 56.5q71 0 120.5 -47.5t49.5 -132.5q0 -124 -92 -247.5t-230 -190.5zM182 883q0 78 57.5 134.5t134.5 56.5q69 0 116 -47.5t47 -114.5q0 -79 -58.5 -136t-137.5 -57q-67 0 -113 48 t-46 116z" />
<glyph unicode="&#x3c;" horiz-adv-x="1104" d="M83 633l46 199l1074 439l-48 -215l-850 -333l703 -328l-44 -198z" />
<glyph unicode="=" horiz-adv-x="1104" d="M42 441l39 170h977l-37 -170h-979zM134 851l37 174h977l-37 -174h-977z" />
<glyph unicode="&#x3e;" horiz-adv-x="1104" d="M-13 197l48 215l852 328l-705 334l44 197l880 -439l-43 -199z" />
<glyph unicode="?" horiz-adv-x="998" d="M182 1319q194 164 445 164q63 0 122 -10t110 -28.5t93.5 -46.5t73 -63.5t47 -80.5t16.5 -95q0 -62 -16.5 -114.5t-45 -89.5t-65 -68.5t-77 -55.5t-81 -45.5t-77.5 -43t-65 -44.5t-45 -53.5t-17 -65.5q0 -38 25 -62l-255 -70q-37 67 -37 153q0 58 18 106.5t48 81.5 t68.5 63t78.5 50.5t78 43t68 42.5t48.5 47.5t18.5 59.5q0 54 -45.5 84.5t-132.5 30.5q-153 0 -267 -105zM232 138q0 78 58 135.5t137 57.5q44 0 81 -22t58 -60t21 -82q0 -79 -57 -136.5t-137 -57.5q-66 0 -113.5 49t-47.5 116z" />
<glyph unicode="@" horiz-adv-x="1715" d="M121 535q0 114 33 225.5t91 206t140 175t177.5 137t206 88t222.5 31.5q153 0 283.5 -53.5t219 -145t138 -213.5t49.5 -258q0 -107 -27 -197.5t-71 -153t-101 -106.5t-117 -64.5t-118 -20.5q-93 0 -147.5 47t-64.5 116l-2 13q-39 -54 -90 -93.5t-109 -61t-117 -21.5 q-104 0 -182 48t-118 131t-40 189q0 86 26.5 168t74.5 148t109.5 116.5t135.5 77.5t149 27q95 0 166.5 -40t107.5 -106l25 115h247l-112 -534q-7 -45 -7 -53q0 -49 22.5 -74t58.5 -25q34 0 69 21t66.5 61.5t51.5 111.5t20 160q0 129 -43 237.5t-121 185t-191.5 119.5 t-249.5 43q-101 0 -200.5 -29t-184.5 -80.5t-157.5 -124t-124 -157.5t-80 -183.5t-28.5 -199.5q0 -102 29.5 -195.5t85 -168t131 -130t171 -86t200.5 -30.5q209 0 401 121l46 -65q-214 -138 -456 -138q-147 0 -276 53.5t-220.5 145t-144.5 219t-53 270.5zM631 577 q0 -86 50 -140t132 -54q137 0 243 143l55 256q-23 45 -68 79t-110 34q-85 0 -155 -46.5t-108.5 -119t-38.5 -152.5z" />
<glyph unicode="A" horiz-adv-x="1498" d="M-129 0l888 1462h389l241 -1462h-337l-38 247h-627l-146 -247h-370zM535 521h454l-88 629z" />
<glyph unicode="B" horiz-adv-x="1451" d="M27 0l322 1462h709q93 0 169 -29t125.5 -77.5t76 -111.5t26.5 -133q0 -96 -46 -181.5t-122.5 -138.5t-164.5 -61q98 -26 154 -110t56 -186q0 -63 -17 -123t-56.5 -117t-97 -99.5t-144.5 -68.5t-193 -26h-797zM397 270h403q102 0 161.5 55t59.5 135q0 44 -19.5 77.5 t-55.5 52.5t-85 19h-390zM533 876h391q54 0 94 16t62 43.5t32 58t10 64.5q0 58 -42.5 97t-106.5 39h-371z" />
<glyph unicode="C" horiz-adv-x="1504" d="M96 629q0 127 31.5 243t88 209.5t136 170t173.5 128t201.5 79t220.5 27.5q104 0 196 -22t162 -60t127.5 -91.5t97 -113t65.5 -128.5l-300 -101q-28 76 -82 130t-126 81.5t-156 27.5q-82 0 -159 -27t-140 -78t-111 -119.5t-74 -155t-26 -181.5q0 -68 18 -128.5t54 -110 t85.5 -85.5t114.5 -55.5t139 -19.5q63 0 126.5 21t120.5 59.5t98 88.5l239 -161q-60 -78 -136.5 -135t-156.5 -88.5t-156 -46t-152 -14.5q-150 0 -282 47t-228.5 131t-152.5 208t-56 270z" />
<glyph unicode="D" horiz-adv-x="1572" d="M27 0l322 1462h565q97 0 190 -29t173 -84.5t140.5 -130.5t95 -175t34.5 -211q0 -84 -16 -166.5t-52 -165.5t-88.5 -156t-130 -136.5t-172.5 -109.5t-220 -72t-268 -26h-573zM399 274h247h11q129 0 237 43.5t179 117t110.5 171.5t39.5 207q0 106 -46.5 191.5t-130.5 134.5 t-191 49h-255z" />
<glyph unicode="E" horiz-adv-x="1276" d="M27 0l322 1462h1033l-61 -274h-721l-67 -310h705l-61 -273h-706l-72 -331h721l-60 -274h-1033z" />
<glyph unicode="F" horiz-adv-x="1250" d="M27 0l322 1462h1033l-61 -274h-721l-67 -310h705l-61 -273h-706l-134 -605h-310z" />
<glyph unicode="G" horiz-adv-x="1577" d="M96 629q0 182 66.5 341.5t182.5 272.5t279.5 178t350.5 65q113 0 213 -29.5t174 -81.5t128 -115t88 -135l-288 -123q-36 91 -136 149t-223 58q-67 0 -132 -19.5t-121 -54.5t-104 -86.5t-81.5 -112.5t-52.5 -135t-19 -153q0 -83 28.5 -155.5t80.5 -126.5t130 -85.5 t172 -31.5q159 0 293 113l38 175h-387l61 274h700l-128 -570q-107 -128 -261 -198t-333 -70q-149 0 -280.5 46.5t-228.5 130t-153.5 207.5t-56.5 272z" />
<glyph unicode="H" horiz-adv-x="1601" d="M27 0l322 1462h310l-124 -575h688l127 575h313l-322 -1462h-313l135 613h-690l-136 -613h-310z" />
<glyph unicode="I" horiz-adv-x="600" d="M27 0l322 1462h310l-322 -1462h-310z" />
<glyph unicode="J" horiz-adv-x="1064" d="M-63 138l168 232q35 -54 97.5 -87.5t136.5 -33.5q53 0 96 17t75 48t53.5 73.5t34.5 97.5l215 977h312l-215 -982q-58 -260 -190.5 -383.5t-357.5 -123.5q-129 0 -243 42t-182 123z" />
<glyph unicode="K" horiz-adv-x="1393" d="M27 0l322 1462h310l-138 -627l638 627h401l-732 -686l450 -776h-366l-322 598l-151 -149l-102 -449h-310z" />
<glyph unicode="L" horiz-adv-x="1145" d="M27 0l322 1462h310l-260 -1188h615l-58 -274h-929z" />
<glyph unicode="M" horiz-adv-x="1873" d="M27 0l322 1462h425l150 -914l559 914h449l-322 -1462h-313l233 1054l-645 -1054h-136l-180 1054l-232 -1054h-310z" />
<glyph unicode="N" horiz-adv-x="1596" d="M27 0l322 1462h320l464 -952l212 952h311l-322 -1462h-299l-479 987l-219 -987h-310z" />
<glyph unicode="O" horiz-adv-x="1675" d="M96 629q0 176 65.5 334.5t178.5 273.5t271 182t336 67q150 0 281.5 -46.5t227.5 -130t151.5 -207t55.5 -270.5q0 -117 -29.5 -228.5t-83 -206t-130.5 -173.5t-170 -134t-204.5 -86t-230.5 -31q-151 0 -283 46.5t-228.5 130.5t-152 208t-55.5 271zM421 648 q0 -90 31 -165.5t86.5 -126.5t131 -79t162.5 -28q104 0 197.5 44t161.5 119t108 179.5t40 219.5q0 120 -54.5 211t-147.5 139t-210 48q-105 0 -198.5 -44t-161 -118.5t-107 -178.5t-39.5 -220z" />
<glyph unicode="P" horiz-adv-x="1366" d="M27 0l322 1462h642q98 0 180.5 -32.5t137.5 -87.5t85 -129t30 -157q0 -48 -9 -98t-30.5 -103.5t-53.5 -101.5t-81 -91t-110 -74.5t-143 -50t-177 -18.5h-366l-117 -519h-310zM513 793h326q57 0 105.5 17.5t82 48.5t52.5 73.5t19 90.5q0 73 -50.5 119t-131.5 46h-316z" />
<glyph unicode="Q" horiz-adv-x="1675" d="M96 629q0 176 65.5 334.5t178.5 273.5t271 182t336 67q150 0 281.5 -46.5t227.5 -130t151.5 -207t55.5 -270.5q0 -207 -87.5 -386t-241.5 -297l77 -118l-250 -121l-70 107q-130 -44 -276 -44q-151 0 -283 46.5t-228.5 130.5t-152 208t-55.5 271zM421 648q0 -90 31 -165.5 t86.5 -126.5t131 -79t162.5 -28q46 0 106 12l-125 201l247 121l117 -184q50 51 86 114.5t56 140t20 157.5q0 120 -54.5 211t-147.5 139t-210 48q-105 0 -198.5 -44t-161 -118.5t-107 -178.5t-39.5 -220z" />
<glyph unicode="R" horiz-adv-x="1408" d="M27 0l322 1462h624q88 0 169.5 -29t144.5 -81t100 -131t37 -171q0 -98 -32 -185.5t-87.5 -152.5t-132 -109.5t-164.5 -61.5l201 -541h-343l-174 519h-240l-115 -519h-310zM513 793h322h4q80 0 139 29t89.5 80t30.5 117q0 72 -55 120.5t-129 48.5h-314z" />
<glyph unicode="S" horiz-adv-x="1313" d="M-2 245l192 228q77 -103 210.5 -165.5t283.5 -62.5q55 0 99 15.5t69 40.5t38 53.5t13 57.5q0 24 -15 46t-34 37.5t-60 35t-68 30t-83 30.5q-59 22 -90 34.5t-86.5 37.5t-87 45.5t-72 54t-62 67.5t-37 80t-15.5 98q0 91 39 176t110.5 152t181.5 107t241 40q176 0 330 -62 t250 -174l-193 -219q-78 91 -197 138.5t-238 47.5q-82 0 -139 -44.5t-57 -104.5q0 -30 24.5 -56t66 -46.5t95 -41t112.5 -42.5t118.5 -47t113 -59.5t95 -75.5t66 -98.5t24.5 -125.5q0 -81 -25 -155.5t-74.5 -137t-118 -109t-161 -72.5t-198.5 -26q-212 0 -389.5 75 t-271.5 197z" />
<glyph unicode="T" horiz-adv-x="1274" d="M197 1188l62 274h1165l-59 -274h-427l-261 -1188h-313l261 1188h-428z" />
<glyph unicode="U" horiz-adv-x="1606" d="M144 485q0 45 11 98l194 879h315l-191 -870q-9 -26 -9 -73q1 -56 22 -104.5t59.5 -86t99 -59.5t135.5 -22q302 0 377 345l193 870h318l-196 -877q-24 -111 -60.5 -200.5t-93 -168t-131 -131t-177.5 -82.5t-230 -30q-155 0 -276.5 37t-199.5 104.5t-119 161.5t-41 209z " />
<glyph unicode="V" horiz-adv-x="1498" d="M193 1462h340l157 -1125l651 1125h370l-885 -1462h-389z" />
<glyph unicode="W" horiz-adv-x="2011" d="M207 1462h341l21 -1056l512 1056h243l43 -1056l489 1056h357l-739 -1462h-330l-35 1004l-476 -1004h-330z" />
<glyph unicode="X" horiz-adv-x="1463" d="M-125 0l704 769l-349 693h353l239 -485l427 485h392l-664 -730l375 -732h-353l-265 519l-469 -519h-390z" />
<glyph unicode="Y" horiz-adv-x="1412" d="M193 1462h338l234 -588l488 588h373l-750 -864l-131 -598h-311l131 598z" />
<glyph unicode="Z" horiz-adv-x="1296" d="M-27 0l56 253l878 935h-671l59 274h1099l-53 -250l-883 -938h690l-61 -274h-1114z" />
<glyph unicode="[" horiz-adv-x="613" d="M-109 -416l423 1902h472l-41 -187h-272l-339 -1529h272l-42 -186h-473z" />
<glyph unicode="\" horiz-adv-x="720" d="M215 1505h201l176 -1549h-201z" />
<glyph unicode="]" horiz-adv-x="613" d="M-173 -416l41 186h272l340 1529h-271l38 187h474l-422 -1902h-472z" />
<glyph unicode="^" horiz-adv-x="966" d="M83 730l504 732h204l175 -732h-195l-116 541l-354 -541h-218z" />
<glyph unicode="_" horiz-adv-x="1235" d="M-186 -274l44 186h1246l-44 -186h-1246z" />
<glyph unicode="`" horiz-adv-x="549" d="M221 1534h256l224 -315h-195z" />
<glyph unicode="a" horiz-adv-x="1284" d="M57 412q0 80 16.5 160.5t47.5 156t79.5 140t109 113t139 76t166.5 27.5q70 0 134 -20t116.5 -57.5t87.5 -89.5l29 140h281l-235 -1058h-281l31 132q-136 -159 -318 -159q-184 0 -293.5 116t-109.5 323zM349 469q0 -112 66 -180t168 -68q72 0 135.5 34.5t107.5 91.5 l81 368q-35 55 -101 88.5t-147 33.5q-88 0 -160 -51.5t-111 -135.5t-39 -181z" />
<glyph unicode="b" horiz-adv-x="1284" d="M19 0l322 1462h280l-119 -535q136 158 320 158q88 0 162 -29.5t127 -84.5t82.5 -138t29.5 -187q0 -96 -23 -191.5t-70 -182.5t-112 -153.5t-156 -106t-195 -39.5q-108 0 -196.5 44t-142.5 123l-29 -140h-280zM372 341q36 -54 101.5 -87t147.5 -33q89 0 161 51.5 t110.5 135.5t38.5 182q0 111 -66 179t-168 68q-71 0 -134 -34.5t-109 -92.5z" />
<glyph unicode="c" horiz-adv-x="1092" d="M61 456q0 103 30.5 199t86.5 173.5t131.5 135.5t170 89.5t197.5 31.5q156 0 263.5 -56t165.5 -153l-207 -159q-22 37 -55.5 64t-76 41.5t-90.5 14.5q-97 0 -173.5 -50.5t-117.5 -134.5t-41 -183q0 -78 35.5 -135t94.5 -85t134 -28q33 0 65 8t60 22t52 33t44 42l152 -186 q-68 -71 -170 -119t-231 -48q-236 0 -378 132.5t-142 350.5z" />
<glyph unicode="d" horiz-adv-x="1284" d="M57 412q0 80 16.5 160.5t47.5 156t79.5 140t109 113t139 76t166.5 27.5q70 0 134 -20t116.5 -57.5t87.5 -89.5l118 544h281l-324 -1462h-281l31 132q-136 -159 -318 -159q-184 0 -293.5 116t-109.5 323zM349 469q0 -112 66 -180t168 -68q72 0 135.5 34.5t107.5 91.5 l81 368q-35 55 -101 88.5t-147 33.5q-88 0 -160 -51.5t-111 -135.5t-39 -181z" />
<glyph unicode="e" horiz-adv-x="1211" d="M61 449q0 103 29.5 198.5t84.5 174.5t129.5 138t169.5 92t199 33q101 0 188 -33t150.5 -93t100 -150t36.5 -198q0 -44 -6.5 -93t-14.5 -77h-788v-27q0 -35 18.5 -72.5t53 -70.5t92 -54.5t126.5 -21.5q71 0 145.5 21t122.5 58l87 -191q-76 -52 -175.5 -81t-199.5 -29 q-166 0 -289.5 57t-191 165t-67.5 254zM368 629h531v22q0 40 -15 77t-43.5 68t-76.5 49t-109 18q-107 0 -187 -70.5t-100 -163.5z" />
<glyph unicode="f" horiz-adv-x="715" d="M83 0l180 817h-175l54 241h174l12 59q18 78 50.5 142.5t81 115.5t119 79.5t157.5 28.5q179 0 278 -103l-138 -161q-46 46 -117 46q-63 0 -99.5 -38t-52.5 -114l-13 -55h217l-55 -241h-215l-179 -817h-279z" />
<glyph unicode="g" horiz-adv-x="1281" d="M-46 -245l163 186q49 -68 142.5 -105t200.5 -37q239 0 301 274l21 96q-62 -76 -145.5 -118t-178.5 -42q-65 0 -123 15t-109 48t-88 82.5t-58 122t-21 162.5q0 97 23.5 190.5t70.5 176t111.5 145t153 98.5t189.5 36q96 0 190.5 -45.5t151.5 -121.5l30 140h281l-219 -985 q-25 -116 -72 -206t-103 -145t-126 -90t-136.5 -48t-139.5 -13q-340 0 -510 184zM349 493q0 -108 66 -172t175 -64q44 0 89.5 16t82.5 42.5t66 61.5l75 328q-25 41 -64.5 71t-89 45.5t-105.5 15.5q-85 0 -153 -46t-105 -124.5t-37 -173.5z" />
<glyph unicode="h" horiz-adv-x="1270" d="M19 0l322 1462h280l-119 -542q169 165 353 165q100 0 175.5 -33.5t115.5 -94.5t40 -142q0 -34 -11 -87l-161 -728h-278l138 636q11 42 11 65q0 70 -49.5 103t-132.5 33q-65 0 -130 -36t-117 -88l-157 -713h-280z" />
<glyph unicode="i" horiz-adv-x="554" d="M19 0l236 1058h278l-234 -1058h-280zM285 1315q0 57 29.5 101.5t71 65.5t85.5 21q65 0 108.5 -41t43.5 -101q0 -35 -11.5 -66t-30.5 -53t-43.5 -38t-51 -23.5t-52.5 -7.5q-63 0 -106 41t-43 101z" />
<glyph unicode="j" horiz-adv-x="554" d="M-412 -339l117 199q48 -61 138 -61q129 0 168 172l244 1087h278l-244 -1087q-20 -94 -52.5 -165t-80.5 -125t-117 -82t-158 -28q-197 0 -293 90zM285 1315q0 57 29.5 101.5t71 65.5t85.5 21q65 0 108.5 -41t43.5 -101q0 -35 -11.5 -66t-30.5 -53t-43.5 -38t-51 -23.5 t-52.5 -7.5q-63 0 -106 41t-43 101z" />
<glyph unicode="k" horiz-adv-x="1171" d="M19 0l322 1462h280l-192 -857l491 453h355l-526 -479l305 -579h-337l-196 414l-164 -142l-58 -272h-280z" />
<glyph unicode="l" horiz-adv-x="554" d="M19 0l322 1462h280l-322 -1462h-280z" />
<glyph unicode="m" horiz-adv-x="1866" d="M19 0l236 1058h278l-31 -138q153 165 322 165q43 0 81.5 -8.5t67.5 -22.5t53 -31.5t40 -36t27.5 -36.5t16.5 -32t5 -23v-6q159 196 366 196q82 0 149.5 -30.5t110.5 -93t43 -146.5q0 -45 -11 -87l-161 -728h-280l142 640q9 51 9 70q0 59 -43.5 93t-107.5 34 q-59 0 -117 -35t-104 -87l-155 -715h-281l142 640q11 53 11 77q-1 52 -42 86t-113 34q-57 0 -114.5 -35.5t-102.5 -86.5l-157 -715h-280z" />
<glyph unicode="n" horiz-adv-x="1267" d="M19 0l236 1058h278l-31 -138q169 165 353 165q100 0 175.5 -33.5t115.5 -94.5t40 -142q0 -34 -11 -87l-163 -728h-278l140 631q11 48 11 70q0 69 -46.5 102.5t-115.5 33.5q-141 0 -267 -122l-157 -715h-280z" />
<glyph unicode="o" horiz-adv-x="1257" d="M59 454q0 98 29 192t84 173t129 139t169.5 93.5t200.5 33.5q124 0 224 -36.5t165.5 -101.5t100.5 -153t35 -192q0 -122 -45.5 -236.5t-125 -201t-195.5 -139t-247 -52.5q-124 0 -223.5 36.5t-165 100.5t-100.5 152t-35 192zM347 469q0 -115 65.5 -181.5t181.5 -66.5 q90 0 163 52.5t111.5 136.5t38.5 180q0 114 -65.5 180.5t-180.5 66.5q-91 0 -164 -53t-111.5 -137t-38.5 -178z" />
<glyph unicode="p" horiz-adv-x="1276" d="M-71 -403l326 1461h278l-31 -131q136 158 320 158q88 0 162 -29.5t127 -84.5t82.5 -138t29.5 -187q0 -96 -23 -191.5t-70 -182.5t-112 -153.5t-156 -106t-195 -39.5q-108 0 -196.5 44t-142.5 123l-119 -543h-280zM372 341q36 -54 101.5 -87t147.5 -33q89 0 161 51.5 t110.5 135.5t38.5 182q0 111 -66 179t-168 68q-71 0 -134 -34.5t-109 -92.5z" />
<glyph unicode="q" horiz-adv-x="1276" d="M57 412q0 80 16.5 160.5t47.5 156t79.5 140t109 113t139 76t166.5 27.5q70 0 134 -20t116.5 -57.5t87.5 -89.5l29 140h281l-325 -1461h-281l121 535q-136 -159 -318 -159q-184 0 -293.5 116t-109.5 323zM349 469q0 -112 66 -180t168 -68q72 0 135.5 34.5t107.5 91.5 l81 368q-35 55 -101 88.5t-147 33.5q-88 0 -160 -51.5t-111 -135.5t-39 -181z" />
<glyph unicode="r" horiz-adv-x="788" d="M19 0l236 1058h278l-33 -138q75 81 165.5 123t210.5 42l-61 -276q-51 13 -100 13q-74 0 -144.5 -36t-118.5 -92l-153 -694h-280z" />
<glyph unicode="s" horiz-adv-x="1044" d="M-19 165l155 186q51 -63 157 -115t213 -52q68 0 110.5 33.5t42.5 77.5q0 28 -23 50.5t-60.5 38t-86 33t-98.5 34t-98 42t-86 55.5t-61 76.5t-23 103.5q0 69 29 133t82.5 114t137.5 80t187 30q133 0 253 -47t196 -126l-142 -178q-41 53 -130.5 95.5t-181.5 42.5 q-71 0 -112 -30t-41 -73q0 -23 23 -43t61 -34t86 -31t98.5 -33.5t99 -42.5t86 -57t60.5 -78.5t23 -104.5q0 -76 -31 -143.5t-88.5 -118t-145 -80.5t-193.5 -30q-147 0 -279.5 50t-219.5 142z" />
<glyph unicode="t" horiz-adv-x="740" d="M81 817l55 241h175l63 290h281l-63 -290h215l-58 -241h-214l-101 -460q-5 -32 -5 -43q0 -29 11 -49.5t34.5 -32t58.5 -11.5q21 0 43.5 7t32.5 15l12 -224q-67 -46 -176 -46q-146 0 -231 58t-85 172q0 37 9 73l119 541h-176z" />
<glyph unicode="u" horiz-adv-x="1267" d="M81 245q0 37 11 86l161 727h280l-142 -637q-10 -44 -10 -64q0 -68 49 -102t129 -34q122 0 252 126l157 711h279l-235 -1058h-278l31 138q-36 -34 -70 -60t-78.5 -51.5t-97 -39.5t-107.5 -14q-152 0 -241.5 74t-89.5 198z" />
<glyph unicode="v" horiz-adv-x="1123" d="M103 1058h290l111 -736l443 736h306l-659 -1058h-301z" />
<glyph unicode="w" horiz-adv-x="1684" d="M117 1058h278l42 -711l389 711h248l72 -711l357 711h298l-557 -1058h-295l-66 721l-381 -721h-299z" />
<glyph unicode="x" horiz-adv-x="1104" d="M-119 0l493 544l-236 514h301l146 -326l291 326h320l-471 -514l262 -544h-303l-163 357l-322 -357h-318z" />
<glyph unicode="y" horiz-adv-x="1123" d="M-105 -403l92 240q40 -17 107 -17q43 0 73.5 17.5t58.5 57.5l65 99l-188 1064h290l111 -736l443 736h306l-770 -1231q-87 -140 -182 -198t-228 -58q-102 0 -178 26z" />
<glyph unicode="z" horiz-adv-x="1048" d="M-27 0l46 209l604 606h-468l54 243h854l-44 -201l-611 -614h481l-52 -243h-864z" />
<glyph unicode="{" horiz-adv-x="630" d="M-21 -136q0 40 8 69l86 376q4 26 4 40q0 47 -24 77t-64 30l36 157q60 0 96 40.5t50 107.5l84 374q26 119 85.5 198t142 116t188.5 37h134l-42 -187h-132q-67 0 -112 -41.5t-63 -120.5l-94 -427q-38 -162 -145 -195q63 -37 63 -122q0 -40 -8 -75l-84 -383q-4 -26 -4 -42 q0 -37 16 -65t43.5 -43t61.5 -15h120l-44 -186h-99q-81 0 -150 34.5t-111 99.5t-42 146z" />
<glyph unicode="|" horiz-adv-x="472" d="M188 -44v1549h186v-1549h-186z" />
<glyph unicode="}" horiz-adv-x="630" d="M-175 -416l41 186h132q138 0 175 163l97 427q33 160 142 196q-63 34 -63 121q0 38 8 74l84 384q4 26 4 42q0 54 -34.5 88t-86.5 34h-121l44 187h100q81 0 150 -35t111.5 -100t42.5 -146q0 -42 -9 -68l-83 -376q-5 -26 -5 -40q0 -48 23.5 -78t62.5 -30l-35 -157 q-61 0 -97 -40t-50 -107l-84 -374q-39 -177 -147 -264t-269 -87h-133z" />
<glyph unicode="~" horiz-adv-x="1117" d="M142 924q18 86 41 159.5t59 144.5t79.5 121t104 80t130.5 30q57 0 98.5 -16.5t63.5 -44t37 -62t19.5 -71t11 -71.5t12 -62.5t21 -44t40.5 -16.5q42 0 86 57.5t77.5 145.5t53.5 188l184 -22q-115 -537 -414 -537q-56 0 -97.5 16.5t-63 43.5t-36.5 62t-20 71t-11 70.5 t-11.5 61.5t-21 43.5t-39.5 16.5q-43 0 -86.5 -55.5t-77 -142.5t-54.5 -187z" />
<glyph unicode="&#xa0;" />
<glyph unicode="&#xa2;" horiz-adv-x="1092" d="M61 456q0 124 45 237.5t122.5 197.5t186.5 136t231 58l36 153h203l-39 -175q175 -48 260 -187l-207 -159q-44 68 -110 96l-132 -587q99 15 173 100l152 -186q-65 -69 -161 -115.5t-216 -51.5l-44 -192h-204l49 215q-162 44 -253.5 165t-91.5 295zM345 469 q0 -74 30.5 -128t86.5 -84l128 569q-112 -31 -178.5 -130t-66.5 -227z" />
<glyph unicode="&#xa3;" horiz-adv-x="1204" d="M25 197q65 29 120.5 69t97 87t65 101t23.5 109q0 18 -3 27h-267l40 177h171q-2 4 -6 11q-22 46 -33.5 72.5t-22.5 70.5t-11 87q0 97 46 185t123.5 151.5t183.5 101t222 37.5q124 0 230 -33.5t182 -100.5t104 -159l-282 -116q-14 73 -75 114t-144 41q-70 0 -127 -32 t-90 -90.5t-33 -131.5q0 -25 4 -47.5t11 -44t14 -38t17.5 -40t16.5 -38.5h312l-42 -177h-247q-15 -90 -76 -169.5t-128 -115.5q46 15 96 15q35 0 70 -7.5t63.5 -18t56 -21.5t60.5 -18.5t65 -7.5q101 0 178 81l69 -247q-107 -110 -270 -110q-64 0 -136 15t-124.5 33t-114 33 t-108.5 15q-104 0 -243 -82z" />
<glyph unicode="&#xa5;" horiz-adv-x="1412" d="M-13 253l38 170h504l38 175h-502l38 173h390l-298 691h338l234 -588l489 588h373l-601 -691h390l-40 -173h-500l-39 -175h500l-40 -170h-497l-55 -253h-310l54 253h-504z" />
<glyph unicode="&#xa8;" horiz-adv-x="646" d="M121 1321q0 66 50.5 115.5t115.5 49.5q58 0 94.5 -37t36.5 -94q0 -65 -50 -115t-115 -50q-57 0 -94.5 37.5t-37.5 93.5zM583 1321q0 33 14 63.5t37 52.5t53 35.5t62 13.5q58 0 95 -37t37 -94q0 -65 -50.5 -115t-115.5 -50q-56 0 -94 37.5t-38 93.5z" />
<glyph unicode="&#xa9;" horiz-adv-x="1704" d="M140 732q0 154 60 294t161 241.5t240.5 161t293.5 59.5t294 -59.5t241.5 -161t161.5 -241.5t60 -294q0 -153 -60 -293t-161.5 -241.5t-241.5 -162t-294 -60.5q-103 0 -201 27.5t-180.5 76.5t-152 119t-118.5 153t-76 180.5t-27 200.5zM219 732q0 -136 54 -261.5 t144.5 -216.5t215.5 -145t262 -54t262.5 54t216.5 145t145 216.5t54 261.5q0 137 -54 262.5t-145 216t-216.5 144.5t-262.5 54t-262 -54t-215.5 -144.5t-144.5 -216t-54 -262.5zM441 673q0 110 43 208t113.5 166t163 107.5t190.5 39.5q115 0 206.5 -44t144.5 -131l-83 -59 q-26 47 -67 80t-92.5 49.5t-112.5 16.5q-74 0 -146.5 -32t-130 -88t-93.5 -137.5t-36 -173.5q0 -85 38 -157t112 -116.5t170 -44.5q70 0 135.5 29.5t114.5 75.5l52 -75q-41 -34 -87.5 -59.5t-103.5 -41.5t-113 -16q-94 0 -173 31t-132.5 85t-83 128t-29.5 159z" />
<glyph unicode="&#xab;" horiz-adv-x="1154" d="M63 533l439 387h265l-447 -399l255 -383h-249zM480 533l438 387h265l-447 -399l255 -383h-248z" />
<glyph unicode="&#xad;" horiz-adv-x="656" d="M37 412l53 236h525l-52 -236h-526z" />
<glyph unicode="&#xae;" horiz-adv-x="1081" d="M184 1019q0 95 36.5 181t99 148t148.5 98.5t180 36.5q96 0 182 -36.5t148 -98.5t98.5 -148t36.5 -181q0 -76 -23.5 -147t-66.5 -128t-100.5 -100t-128.5 -66.5t-148 -23.5q-94 0 -180 37t-147.5 99t-98 148t-36.5 181zM255 1019q0 -107 51.5 -197.5t142 -143.5t197.5 -53 t198.5 52.5t145 143.5t53.5 198t-53.5 198t-145 143.5t-198.5 52.5q-108 0 -198 -52.5t-141.5 -143t-51.5 -198.5zM412 751l117 533h201q69 0 113 -39.5t44 -100.5q0 -75 -54 -127.5t-120 -52.5l96 -213h-88l-92 211h-96l-46 -211h-75zM546 1030h142q54 0 87.5 31t33.5 76 q0 37 -24.5 59.5t-69.5 22.5h-125z" />
<glyph unicode="&#xb4;" horiz-adv-x="549" d="M147 1219l363 315h261l-424 -315h-200z" />
<glyph unicode="&#xb8;" horiz-adv-x="483" d="M-195 -339l76 105q38 -37 86.5 -57t97.5 -20q34 0 59 9t38 26.5t13 41.5t-17 38t-49 14q-35 0 -63 -31l-88 58l105 180h138l-84 -136q30 21 67 21q56 0 93 -36.5t37 -99.5q0 -92 -70.5 -147.5t-178.5 -55.5q-83 0 -152 25.5t-108 64.5z" />
<glyph unicode="&#xbb;" horiz-adv-x="1154" d="M-25 138l448 399l-254 383h247l263 -394l-438 -388h-266zM393 138l446 399l-254 383h247l264 -394l-439 -388h-264z" />
<glyph unicode="&#x2c6;" horiz-adv-x="656" d="M151 1219l272 315h250l136 -315h-167l-119 194l-197 -194h-175z" />
<glyph unicode="&#x2da;" horiz-adv-x="457" d="M186 1374q0 101 75.5 176.5t177.5 75.5q93 0 150 -58t57 -152q0 -104 -74 -178.5t-177 -74.5q-93 0 -151 58.5t-58 152.5zM316 1387q0 -43 25.5 -68.5t66.5 -25.5q44 0 76.5 33t32.5 77q0 41 -25 67.5t-65 26.5q-44 0 -77.5 -33.5t-33.5 -76.5z" />
<glyph unicode="&#x2dc;" horiz-adv-x="715" d="M153 1227q29 146 92 219.5t173 73.5q36 0 66 -10.5t49 -27t38 -35.5t33.5 -35t35 -27t44.5 -11q67 0 98 134h149q-33 -148 -94.5 -221t-172.5 -73q-31 0 -57 8.5t-44.5 21.5t-34.5 29t-30 32t-28 29t-32 21t-39 8q-68 0 -96 -136h-150z" />
<glyph unicode="&#x401;" horiz-adv-x="1276" d="M27 0l322 1462h1033l-61 -274h-721l-67 -310h705l-61 -273h-706l-72 -331h721l-60 -274h-1033zM544 1687q0 66 51 115.5t115 49.5q58 0 94.5 -37t36.5 -94q0 -65 -50 -115t-116 -50q-56 0 -93.5 37.5t-37.5 93.5zM1006 1687q0 66 51 115.5t116 49.5q57 0 94 -37t37 -94 q0 -42 -23 -80.5t-62 -61.5t-82 -23q-37 0 -67 17t-47 47t-17 67z" />
<glyph unicode="&#x402;" horiz-adv-x="1700" d="M197 1188l60 274h1165l-59 -274h-425l-70 -310q167 49 326 49q91 0 165 -17.5t125.5 -48.5t88.5 -74.5t53 -97t19 -114.5t-12 -128l-4 -18q-23 -107 -82 -194t-142.5 -144t-186.5 -87.5t-216 -30.5l58 270q100 0 168 51t87 135l2 18q23 99 -35 152.5t-186 53.5 q-148 0 -287 -48l-132 -605h-313l261 1188h-428z" />
<glyph unicode="&#x403;" horiz-adv-x="1250" d="M27 0l322 1462h1033l-61 -274h-721l-263 -1188h-310zM763 1585l364 315h260l-425 -315h-199z" />
<glyph unicode="&#x404;" horiz-adv-x="1504" d="M96 629q0 127 31.5 243t88 209.5t136 170t173.5 128t201.5 79t220.5 27.5q104 0 196 -22t162 -60t127.5 -91.5t97 -113t65.5 -128.5l-300 -101q-28 76 -82 130t-126 81.5t-156 27.5q-154 0 -280.5 -90.5t-186.5 -240.5h715l-62 -273h-694q14 -158 124.5 -257t284.5 -99 q63 0 126.5 21t120.5 59.5t98 88.5l239 -161q-60 -78 -136.5 -135t-156.5 -88.5t-156 -46t-152 -14.5q-150 0 -282 47t-228.5 131t-152.5 208t-56 270z" />
<glyph unicode="&#x405;" horiz-adv-x="1313" d="M-2 245l192 228q77 -103 210.5 -165.5t283.5 -62.5q55 0 99 15.5t69 40.5t38 53.5t13 57.5q0 24 -15 46t-34 37.5t-60 35t-68 30t-83 30.5q-59 22 -90 34.5t-86.5 37.5t-87 45.5t-72 54t-62 67.5t-37 80t-15.5 98q0 91 39 176t110.5 152t181.5 107t241 40q176 0 330 -62 t250 -174l-193 -219q-78 91 -197 138.5t-238 47.5q-82 0 -139 -44.5t-57 -104.5q0 -30 24.5 -56t66 -46.5t95 -41t112.5 -42.5t118.5 -47t113 -59.5t95 -75.5t66 -98.5t24.5 -125.5q0 -81 -25 -155.5t-74.5 -137t-118 -109t-161 -72.5t-198.5 -26q-212 0 -389.5 75 t-271.5 197z" />
<glyph unicode="&#x406;" horiz-adv-x="600" d="M27 0l322 1462h310l-322 -1462h-310z" />
<glyph unicode="&#x407;" horiz-adv-x="600" d="M27 0l322 1462h310l-322 -1462h-310zM178 1687q0 66 51 115.5t116 49.5q57 0 93.5 -37t36.5 -94q0 -65 -50 -115t-116 -50q-56 0 -93.5 37.5t-37.5 93.5zM640 1687q0 66 51 115.5t116 49.5q58 0 94.5 -37t36.5 -94q0 -42 -23 -80.5t-62 -61.5t-82 -23q-56 0 -93.5 37.5 t-37.5 93.5z" />
<glyph unicode="&#x408;" horiz-adv-x="1064" d="M-63 138l168 232q35 -54 97.5 -87.5t136.5 -33.5q53 0 96 17t75 48t53.5 73.5t34.5 97.5l215 977h312l-215 -982q-58 -260 -190.5 -383.5t-357.5 -123.5q-129 0 -243 42t-182 123z" />
<glyph unicode="&#x409;" horiz-adv-x="2367" d="M-67 -27l58 276q48 0 85 11.5t75.5 41.5t73 82.5t71.5 134t76 196.5l251 747h1038l-116 -519h333q98 0 180.5 -32.5t137 -87.5t84.5 -129t30 -157q0 -48 -9 -98t-30.5 -103.5t-53.5 -101.5t-81 -91t-109.5 -74.5t-142.5 -50t-177 -18.5h-679l260 1188h-445l-166 -496 q-43 -128 -90 -230.5t-94 -177t-100.5 -129.5t-105.5 -89.5t-112.5 -55.5t-117.5 -29t-124 -8zM1398 274h323q119 0 191.5 65.5t72.5 164.5q0 71 -50.5 118t-130.5 47h-318z" />
<glyph unicode="&#x40a;" horiz-adv-x="2367" d="M27 0l320 1462h310l-122 -557h690l123 557h313l-122 -557h350q95 0 174.5 -30.5t131.5 -84t81 -124.5t29 -151q0 -47 -9 -94.5t-29 -99t-50.5 -97.5t-77.5 -87t-105 -71.5t-137.5 -48t-171.5 -17.5h-697l135 631h-688l-138 -631h-310zM1398 274h346q107 0 173 59.5 t66 149.5q0 65 -46 106.5t-120 41.5h-340z" />
<glyph unicode="&#x40b;" horiz-adv-x="1767" d="M197 1188l60 274h1165l-59 -274h-425l-70 -310q167 49 326 49q109 0 193 -25.5t137 -72t82.5 -113t31 -149.5t-18.5 -180l-82 -387h-316l83 387q32 138 -22 202t-186 64q-148 0 -287 -48l-132 -605h-313l261 1188h-428z" />
<glyph unicode="&#x40c;" horiz-adv-x="1393" d="M27 0l322 1462h310l-138 -627l638 627h401l-732 -686l450 -776h-366l-322 598l-151 -149l-102 -449h-310zM809 1585l364 315h260l-425 -315h-199z" />
<glyph unicode="&#x40e;" horiz-adv-x="1412" d="M-90 79l171 249q79 -79 174 -79q51 0 91 18.5t72 50t77 92.5l-302 1052h342l193 -774l532 774h364l-861 -1182q-52 -71 -104.5 -123.5t-118.5 -95.5t-147 -65.5t-176 -22.5q-97 0 -181.5 30.5t-125.5 75.5zM561 1723l142 102q20 -42 52.5 -72t77.5 -46.5t100 -16.5 q163 0 292 135l105 -102q-86 -91 -197 -142t-228 -51q-115 0 -206 51.5t-138 141.5z" />
<glyph unicode="&#x40f;" horiz-adv-x="1601" d="M27 0l320 1462h310l-260 -1188h690l261 1188h313l-320 -1462h-504l-61 -278h-312l59 278h-496z" />
<glyph unicode="&#x410;" horiz-adv-x="1498" d="M-129 0l888 1462h389l241 -1462h-337l-38 247h-627l-146 -247h-370zM535 521h454l-88 629z" />
<glyph unicode="&#x411;" horiz-adv-x="1366" d="M27 0l320 1462h1066l-58 -274h-757l-57 -259h312q107 0 194.5 -31.5t144 -86.5t87 -127.5t30.5 -154.5q0 -48 -9.5 -97.5t-30.5 -102t-53 -99.5t-80.5 -89.5t-108.5 -73.5t-142 -49t-177 -18h-681zM397 274h333q115 0 184.5 63.5t69.5 160.5q0 68 -48.5 112.5 t-124.5 44.5h-328z" />
<glyph unicode="&#x412;" horiz-adv-x="1451" d="M27 0l322 1462h709q93 0 169 -29t125.5 -77.5t76 -111.5t26.5 -133q0 -96 -46 -181.5t-122.5 -138.5t-164.5 -61q98 -26 154 -110t56 -186q0 -63 -17 -123t-56.5 -117t-97 -99.5t-144.5 -68.5t-193 -26h-797zM397 270h403q102 0 161.5 55t59.5 135q0 44 -19.5 77.5 t-55.5 52.5t-85 19h-390zM533 876h391q54 0 94 16t62 43.5t32 58t10 64.5q0 58 -42.5 97t-106.5 39h-371z" />
<glyph unicode="&#x413;" horiz-adv-x="1250" d="M27 0l322 1462h1033l-61 -274h-721l-263 -1188h-310z" />
<glyph unicode="&#x414;" horiz-adv-x="1627" d="M-121 -270l112 519q50 7 85.5 20t75.5 42.5t73.5 79t70.5 130t76 194.5l251 747h1038l-263 -1188h134l-121 -544h-311l59 270h-912l-59 -270h-309zM408 274h679l201 914h-445l-166 -496q-92 -279 -269 -418z" />
<glyph unicode="&#x415;" horiz-adv-x="1276" d="M27 0l322 1462h1033l-61 -274h-721l-67 -310h705l-61 -273h-706l-72 -331h721l-60 -274h-1033z" />
<glyph unicode="&#x416;" horiz-adv-x="2083" d="M-119 0l788 776l-430 686h361l351 -616l136 616h314l-123 -559l562 559h408l-732 -686l450 -776h-360l-322 600l-92 -87l-111 -513h-314l111 510l-37 62l-556 -572h-404z" />
<glyph unicode="&#x417;" horiz-adv-x="1336" d="M-4 278l205 189q28 -43 67.5 -78.5t84 -61t94.5 -43.5t99.5 -26.5t97.5 -8.5q129 0 202.5 57t73.5 146q0 69 -69 111t-213 42h-291l61 273h320q64 0 117 9.5t95 29t65 53t23 78.5q0 72 -82.5 115.5t-220.5 43.5q-99 0 -197 -29.5t-171 -88.5l-112 213q90 83 227.5 132 t283.5 49q175 0 309 -44.5t209.5 -131.5t75.5 -205q0 -71 -35 -135.5t-91.5 -110.5t-126.5 -76t-141 -40q58 -14 105.5 -39.5t85.5 -63.5t59 -93.5t21 -122.5q0 -95 -46.5 -179t-125 -142.5t-184.5 -92.5t-223 -34q-139 0 -267 35t-230.5 105t-154.5 165z" />
<glyph unicode="&#x418;" horiz-adv-x="1596" d="M27 0l322 1462h310l-207 -952l884 952h320l-322 -1462h-313l219 987l-914 -987h-299z" />
<glyph unicode="&#x419;" horiz-adv-x="1596" d="M27 0l322 1462h310l-207 -952l884 952h320l-322 -1462h-313l219 987l-914 -987h-299zM667 1723l142 102q30 -64 89 -99.5t141 -35.5q162 0 291 135l105 -102q-86 -91 -197.5 -142t-227.5 -51q-115 0 -205.5 51.5t-137.5 141.5z" />
<glyph unicode="&#x41a;" horiz-adv-x="1393" d="M27 0l322 1462h310l-138 -627l638 627h401l-732 -686l450 -776h-366l-322 598l-151 -149l-102 -449h-310z" />
<glyph unicode="&#x41b;" horiz-adv-x="1601" d="M-67 -27l58 276q48 0 85 11.5t75.5 41.5t73 82.5t71.5 134t76 196.5l251 747h1038l-320 -1462h-313l260 1188h-445l-166 -496q-43 -128 -90 -230.5t-94 -177t-100.5 -129.5t-105.5 -89.5t-112.5 -55.5t-117.5 -29t-124 -8z" />
<glyph unicode="&#x41c;" horiz-adv-x="1873" d="M27 0l322 1462h425l150 -914l559 914h449l-322 -1462h-313l233 1054l-645 -1054h-136l-180 1054l-232 -1054h-310z" />
<glyph unicode="&#x41d;" horiz-adv-x="1601" d="M27 0l322 1462h310l-124 -575h688l127 575h313l-322 -1462h-313l135 613h-690l-136 -613h-310z" />
<glyph unicode="&#x41e;" horiz-adv-x="1675" d="M96 629q0 176 65.5 334.5t178.5 273.5t271 182t336 67q150 0 281.5 -46.5t227.5 -130t151.5 -207t55.5 -270.5q0 -117 -29.5 -228.5t-83 -206t-130.5 -173.5t-170 -134t-204.5 -86t-230.5 -31q-151 0 -283 46.5t-228.5 130.5t-152 208t-55.5 271zM421 648 q0 -90 31 -165.5t86.5 -126.5t131 -79t162.5 -28q104 0 197.5 44t161.5 119t108 179.5t40 219.5q0 120 -54.5 211t-147.5 139t-210 48q-105 0 -198.5 -44t-161 -118.5t-107 -178.5t-39.5 -220z" />
<glyph unicode="&#x41f;" horiz-adv-x="1601" d="M27 0l322 1462h1314l-322 -1462h-313l260 1188h-688l-263 -1188h-310z" />
<glyph unicode="&#x420;" horiz-adv-x="1366" d="M27 0l322 1462h642q98 0 180.5 -32.5t137.5 -87.5t85 -129t30 -157q0 -48 -9 -98t-30.5 -103.5t-53.5 -101.5t-81 -91t-110 -74.5t-143 -50t-177 -18.5h-366l-117 -519h-310zM513 793h326q57 0 105.5 17.5t82 48.5t52.5 73.5t19 90.5q0 73 -50.5 119t-131.5 46h-316z" />
<glyph unicode="&#x421;" horiz-adv-x="1504" d="M96 629q0 127 31.5 243t88 209.5t136 170t173.5 128t201.5 79t220.5 27.5q104 0 196 -22t162 -60t127.5 -91.5t97 -113t65.5 -128.5l-300 -101q-28 76 -82 130t-126 81.5t-156 27.5q-82 0 -159 -27t-140 -78t-111 -119.5t-74 -155t-26 -181.5q0 -68 18 -128.5t54 -110 t85.5 -85.5t114.5 -55.5t139 -19.5q63 0 126.5 21t120.5 59.5t98 88.5l239 -161q-60 -78 -136.5 -135t-156.5 -88.5t-156 -46t-152 -14.5q-150 0 -282 47t-228.5 131t-152.5 208t-56 270z" />
<glyph unicode="&#x422;" horiz-adv-x="1274" d="M197 1188l62 274h1165l-59 -274h-427l-261 -1188h-313l261 1188h-428z" />
<glyph unicode="&#x423;" horiz-adv-x="1412" d="M-90 79l171 249q79 -79 174 -79q51 0 91 18.5t72 50t77 92.5l-302 1052h342l193 -774l532 774h364l-861 -1182q-52 -71 -104.5 -123.5t-118.5 -95.5t-147 -65.5t-176 -22.5q-97 0 -181.5 30.5t-125.5 75.5z" />
<glyph unicode="&#x424;" horiz-adv-x="1873" d="M107 677q0 132 63.5 246.5t175.5 197t270.5 133.5t345.5 61l33 147h311l-35 -153q590 -66 590 -529q0 -175 -109.5 -315.5t-303.5 -224t-442 -98.5l-33 -142h-312l36 151q-590 66 -590 526zM434 677q0 -101 83 -166t242 -86l138 610q-222 -25 -342.5 -119.5 t-120.5 -238.5zM1069 423q148 16 253 64t158.5 123t53.5 172q0 101 -83 166t-244 87z" />
<glyph unicode="&#x425;" horiz-adv-x="1463" d="M-125 0l704 769l-349 693h353l239 -485l427 485h392l-664 -730l375 -732h-353l-265 519l-469 -519h-390z" />
<glyph unicode="&#x426;" horiz-adv-x="1627" d="M27 0l320 1462h310l-260 -1188h690l261 1188h313l-263 -1188h134l-121 -544h-311l59 270h-1132z" />
<glyph unicode="&#x427;" horiz-adv-x="1422" d="M200 871q-1 83 19 181l90 410h314l-90 -410q-31 -139 23 -202.5t187 -63.5q158 0 287 49l138 627h311l-320 -1462h-310l119 561q-164 -48 -324 -48q-110 0 -194 24.5t-137 71.5t-82.5 113t-30.5 149z" />
<glyph unicode="&#x428;" horiz-adv-x="2153" d="M27 0l320 1462h310l-260 -1188h464l261 1188h313l-262 -1188h464l261 1188h313l-320 -1462h-1864z" />
<glyph unicode="&#x429;" horiz-adv-x="2177" d="M27 0l320 1462h310l-260 -1188h464l261 1188h313l-262 -1188h464l261 1188h313l-260 -1188h131l-119 -544h-313l59 270h-1682z" />
<glyph unicode="&#x42a;" horiz-adv-x="1704" d="M197 1188l60 274h740l-116 -519h333q99 0 181 -32.5t136.5 -87.5t84.5 -129t30 -157q0 -48 -9.5 -98t-30.5 -103.5t-53 -101.5t-80.5 -91t-109 -74.5t-143 -50t-177.5 -18.5h-679l261 1188h-428zM734 274h322q120 0 192.5 65.5t72.5 164.5q0 71 -51 118t-130 47h-318z " />
<glyph unicode="&#x42b;" horiz-adv-x="1899" d="M27 0l320 1462h310l-113 -519h332q80 0 149 -21t120.5 -58.5t88.5 -88t56 -111.5t19 -127q0 -48 -9.5 -98t-31 -103.5t-53 -101.5t-80.5 -91t-109.5 -74.5t-143 -50t-177.5 -18.5h-678zM397 274h322q118 0 191.5 65.5t73.5 164.5q0 71 -51 118t-131 47h-317zM1324 0 l320 1462h313l-320 -1462h-313z" />
<glyph unicode="&#x42c;" horiz-adv-x="1366" d="M27 0l320 1462h310l-113 -519h332q80 0 149 -21t120.5 -58.5t88.5 -88t56 -111.5t19 -127q0 -48 -9.5 -98t-31 -103.5t-53 -101.5t-80.5 -91t-109.5 -74.5t-143 -50t-177.5 -18.5h-678zM397 274h322q118 0 191.5 65.5t73.5 164.5q0 71 -51 118t-131 47h-317z" />
<glyph unicode="&#x42d;" horiz-adv-x="1504" d="M-9 387l300 102q42 -114 140 -177t226 -63q158 0 288 98t186 258h-717l61 273h686q-22 148 -130.5 239.5t-274.5 91.5q-93 0 -187 -45t-157 -121l-241 162q49 62 109.5 111t121 80.5t126.5 52t126 29t120 8.5q150 0 281.5 -47t228 -131t152 -207.5t55.5 -270.5 q0 -126 -31.5 -242t-88 -209.5t-135.5 -170t-172.5 -128t-201 -79.5t-220.5 -28q-105 0 -197.5 22t-162.5 60t-128 91t-97 113t-66 128z" />
<glyph unicode="&#x42e;" horiz-adv-x="2285" d="M27 0l320 1462h310l-124 -575h207q40 130 117 240.5t181.5 190t237.5 124t278 44.5q120 0 229 -29t197.5 -86t153.5 -135.5t101 -182t36 -221t-30 -229t-83.5 -206t-130.5 -173.5t-170 -134t-204.5 -86t-230.5 -31q-150 0 -280.5 45.5t-226.5 127t-152.5 202.5t-59.5 265 h-232l-134 -613h-310zM1028 648q0 -121 54 -212t147 -139t211 -48q104 0 197.5 44t161 119t107.5 179.5t40 219.5q0 120 -54 211t-147 139t-211 48q-104 0 -197.5 -44t-161 -118.5t-107.5 -178.5t-40 -220z" />
<glyph unicode="&#x42f;" horiz-adv-x="1408" d="M-37 0l458 559q-46 19 -86.5 52.5t-74.5 78.5t-54 106t-20 128q0 43 7.5 86.5t22.5 90t40.5 90t59.5 84.5t81.5 74.5t104.5 59t131 39.5t158 14h677l-322 -1462h-311l114 519h-193l-401 -519h-392zM510 958q0 -71 51.5 -118t130.5 -47h318l86 395h-325q-114 0 -187.5 -66 t-73.5 -164z" />
<glyph unicode="&#x430;" horiz-adv-x="1284" d="M57 412q0 80 16.5 160.5t47.5 156t79.5 140t109 113t139 76t166.5 27.5q70 0 134 -20t116.5 -57.5t87.5 -89.5l29 140h281l-235 -1058h-281l31 132q-136 -159 -318 -159q-184 0 -293.5 116t-109.5 323zM349 469q0 -112 66 -180t168 -68q72 0 135.5 34.5t107.5 91.5 l81 368q-35 55 -101 88.5t-147 33.5q-88 0 -160 -51.5t-111 -135.5t-39 -181z" />
<glyph unicode="&#x431;" horiz-adv-x="1263" d="M63 473q0 103 35 229.5t82 211.5q74 135 163 227t212 151.5t284 83.5q75 13 121 25t71 27t29 34h290q-51 -230 -504 -285q-336 -43 -438 -265q50 53 109 91t125.5 58t135.5 20q132 0 227.5 -62.5t143 -169.5t47.5 -247q0 -122 -45.5 -236.5t-125 -201t-195.5 -139 t-247 -52.5q-124 0 -223 36.5t-163.5 103t-99 158t-34.5 202.5zM347 469q0 -115 65.5 -181.5t181.5 -66.5q90 0 163 52.5t111.5 136.5t38.5 180q0 114 -65.5 180.5t-180.5 66.5q-91 0 -164 -53t-111.5 -137t-38.5 -178z" />
<glyph unicode="&#x432;" horiz-adv-x="1284" d="M19 0l234 1058h644q135 0 213 -65t78 -169q0 -108 -67 -186.5t-172 -100.5q149 -62 149 -215q0 -64 -24 -122.5t-68 -103t-110.5 -70.5t-146.5 -26h-730zM349 228h354q53 0 87 32t34 79q0 40 -28 63t-77 23h-326zM441 653h343q48 0 79.5 29.5t31.5 71.5q0 35 -25.5 55.5 t-69.5 20.5h-323z" />
<glyph unicode="&#x433;" horiz-adv-x="994" d="M19 0l234 1058h816l-55 -243h-539l-176 -815h-280z" />
<glyph unicode="&#x434;" horiz-adv-x="1286" d="M-136 -270l107 502q29 6 49.5 14.5t45.5 29.5t46.5 53.5t46.5 86.5t52 130l180 512h856l-180 -815h116l-112 -513h-280l60 270h-652l-59 -270h-276zM299 243h490l123 572h-333l-96 -286q-62 -192 -184 -286z" />
<glyph unicode="&#x435;" horiz-adv-x="1211" d="M61 449q0 103 29.5 198.5t84.5 174.5t129.5 138t169.5 92t199 33q101 0 188 -33t150.5 -93t100 -150t36.5 -198q0 -44 -6.5 -93t-14.5 -77h-788v-27q0 -35 18.5 -72.5t53 -70.5t92 -54.5t126.5 -21.5q71 0 145.5 21t122.5 58l87 -191q-76 -52 -175.5 -81t-199.5 -29 q-166 0 -289.5 57t-191 165t-67.5 254zM368 629h531v22q0 40 -15 77t-43.5 68t-76.5 49t-109 18q-107 0 -187 -70.5t-100 -163.5z" />
<glyph unicode="&#x436;" horiz-adv-x="1643" d="M-117 0l558 579l-312 479h325l251 -403l90 403h281l-79 -361l385 361h360l-523 -479l304 -579h-329l-199 418l-75 -65l-77 -353h-280l77 351l-33 46l-360 -397h-364z" />
<glyph unicode="&#x437;" horiz-adv-x="1104" d="M-31 151l167 163q116 -119 309 -119q107 0 177 37.5t70 93.5q0 47 -45 74t-137 27h-238l50 215h217q258 0 258 127q0 44 -47.5 69t-142.5 25t-194 -30.5t-187 -87.5l-103 175q67 50 146 86.5t173 57.5t191 21q238 0 349.5 -72.5t111.5 -201.5q0 -44 -17 -84.5t-45 -71 t-63.5 -55.5t-75.5 -41t-78 -26t-72 -12q102 -17 168 -74t66 -138q0 -94 -70 -171.5t-191 -121t-267 -43.5q-156 0 -282.5 49.5t-197.5 128.5z" />
<glyph unicode="&#x438;" horiz-adv-x="1270" d="M19 0l234 1058h278l-144 -640l579 640h281l-233 -1058h-278l145 664l-594 -664h-268z" />
<glyph unicode="&#x439;" horiz-adv-x="1270" d="M19 0l234 1058h278l-144 -640l579 640h281l-233 -1058h-278l145 664l-594 -664h-268zM421 1357l142 102q20 -42 52 -72t77.5 -46.5t100.5 -16.5q163 0 292 135l105 -102q-87 -91 -198 -142.5t-227 -51.5q-115 0 -206 52t-138 142z" />
<glyph unicode="&#x43a;" horiz-adv-x="1171" d="M19 0l236 1058h278l-104 -453l491 453h355l-526 -479l305 -579h-337l-196 414l-164 -142l-58 -272h-280z" />
<glyph unicode="&#x43b;" horiz-adv-x="1270" d="M-86 -27l51 228q65 0 122.5 78t123.5 267l180 512h856l-233 -1058h-278l176 815h-333l-102 -302q-93 -278 -227.5 -409t-335.5 -131z" />
<glyph unicode="&#x43c;" horiz-adv-x="1526" d="M19 0l234 1058h354l121 -631l397 631h378l-232 -1058h-278l149 688l-432 -688h-127l-136 688l-148 -688h-280z" />
<glyph unicode="&#x43d;" horiz-adv-x="1267" d="M19 0l242 1058h278l-87 -383h437l88 383h279l-242 -1058h-278l96 429h-435l-98 -429h-280z" />
<glyph unicode="&#x43e;" horiz-adv-x="1257" d="M59 454q0 98 29 192t84 173t129 139t169.5 93.5t200.5 33.5q124 0 224 -36.5t165.5 -101.5t100.5 -153t35 -192q0 -122 -45.5 -236.5t-125 -201t-195.5 -139t-247 -52.5q-124 0 -223.5 36.5t-165 100.5t-100.5 152t-35 192zM347 469q0 -115 65.5 -181.5t181.5 -66.5 q90 0 163 52.5t111.5 136.5t38.5 180q0 114 -65.5 180.5t-180.5 66.5q-91 0 -164 -53t-111.5 -137t-38.5 -178z" />
<glyph unicode="&#x43f;" horiz-adv-x="1267" d="M19 0l242 1058h995l-242 -1058h-278l184 815h-435l-186 -815h-280z" />
<glyph unicode="&#x440;" horiz-adv-x="1276" d="M-71 -403l326 1461h278l-31 -131q136 158 320 158q88 0 162 -29.5t127 -84.5t82.5 -138t29.5 -187q0 -96 -23 -191.5t-70 -182.5t-112 -153.5t-156 -106t-195 -39.5q-108 0 -196.5 44t-142.5 123l-119 -543h-280zM372 341q36 -54 101.5 -87t147.5 -33q89 0 161 51.5 t110.5 135.5t38.5 182q0 111 -66 179t-168 68q-71 0 -134 -34.5t-109 -92.5z" />
<glyph unicode="&#x441;" horiz-adv-x="1092" d="M61 456q0 103 30.5 199t86.5 173.5t131.5 135.5t170 89.5t197.5 31.5q156 0 263.5 -56t165.5 -153l-207 -159q-22 37 -55.5 64t-76 41.5t-90.5 14.5q-97 0 -173.5 -50.5t-117.5 -134.5t-41 -183q0 -78 35.5 -135t94.5 -85t134 -28q33 0 65 8t60 22t52 33t44 42l152 -186 q-68 -71 -170 -119t-231 -48q-236 0 -378 132.5t-142 350.5z" />
<glyph unicode="&#x442;" horiz-adv-x="945" d="M96 815l55 243h872l-55 -243h-295l-178 -815h-280l178 815h-297z" />
<glyph unicode="&#x443;" horiz-adv-x="1123" d="M-105 -403l92 240q40 -17 107 -17q43 0 73.5 17.5t58.5 57.5l65 99l-188 1064h290l111 -736l443 736h306l-770 -1231q-87 -140 -182 -198t-228 -58q-102 0 -178 26z" />
<glyph unicode="&#x444;" horiz-adv-x="1842" d="M65 385q0 100 22 200.5t66 190t103 159t139.5 110t169.5 40.5q91 0 173.5 -43t124.5 -120l121 540h279l-119 -538q121 161 293 161q66 0 121.5 -23t94 -62t65 -92t39 -112t12.5 -123q0 -100 -22 -200.5t-66 -190t-103 -158.5t-139.5 -110t-169.5 -41q-90 0 -172 43 t-127 120l-117 -539h-278l117 539q-61 -87 -134 -125t-161 -38q-66 0 -121.5 23t-94 62t-65 92t-39 112t-12.5 123zM357 441q0 -95 45 -157.5t127 -62.5q112 0 209 120l82 376q-11 25 -29.5 46.5t-43 38t-55.5 26t-65 9.5q-59 0 -110.5 -35.5t-85.5 -92.5t-54 -127.5 t-20 -140.5zM1016 341q14 -33 41.5 -60t67.5 -43.5t84 -16.5q58 0 109.5 36t86 93t54.5 127.5t20 140.5q0 96 -44.5 157.5t-128.5 61.5q-57 0 -110.5 -33t-95.5 -87z" />
<glyph unicode="&#x445;" horiz-adv-x="1104" d="M-119 0l493 544l-236 514h301l146 -326l291 326h320l-471 -514l262 -544h-303l-163 357l-322 -357h-318z" />
<glyph unicode="&#x446;" horiz-adv-x="1286" d="M19 0l234 1058h278l-180 -815h438l179 815h279l-180 -815h116l-112 -513h-280l60 270h-832z" />
<glyph unicode="&#x447;" horiz-adv-x="1235" d="M134 675l85 383h279l-64 -287q-10 -55 -6 -93t28.5 -61t62 -32.5t94.5 -9.5q134 0 224 40l96 443h281l-232 -1058h-281l85 393q-136 -67 -324 -67q-214 0 -290 89t-38 260z" />
<glyph unicode="&#x448;" horiz-adv-x="1802" d="M19 0l234 1058h278l-180 -815h346l179 815h279l-180 -815h346l178 815h280l-232 -1058h-1528z" />
<glyph unicode="&#x449;" horiz-adv-x="1831" d="M19 0l234 1058h278l-180 -815h346l179 815h279l-180 -815h346l178 815h280l-179 -815h116l-112 -513h-280l58 270h-1363z" />
<glyph unicode="&#x44a;" horiz-adv-x="1408" d="M96 815l55 243h577l-82 -364h297q167 0 263 -83.5t96 -219.5q0 -76 -28.5 -145.5t-80 -124.5t-131 -88t-173.5 -33h-674l178 815h-297zM546 234h330q62 0 101 37t39 93q0 23 -7.5 41t-23 31t-38 19.5t-50.5 6.5h-301z" />
<glyph unicode="&#x44b;" horiz-adv-x="1700" d="M19 0l234 1058h278l-82 -364h296q167 0 263 -83.5t96 -219.5q0 -76 -28 -145.5t-79 -124.5t-130 -88t-173 -33h-675zM349 234h330q63 0 102 37t39 93q0 30 -14.5 52t-41.5 34t-65 12h-300zM1166 0l232 1058h281l-232 -1058h-281z" />
<glyph unicode="&#x44c;" horiz-adv-x="1211" d="M19 0l234 1058h278l-82 -364h296q167 0 263 -83.5t96 -219.5q0 -76 -28 -145.5t-79 -124.5t-130 -88t-173 -33h-675zM349 234h330q63 0 102 37t39 93q0 30 -14.5 52t-41.5 34t-65 12h-300z" />
<glyph unicode="&#x44d;" horiz-adv-x="1092" d="M-17 182l197 149q33 -55 95.5 -87.5t134.5 -32.5q105 0 186.5 58.5t120.5 155.5h-439l48 215h412q-15 97 -84.5 151.5t-168.5 54.5q-67 0 -130 -28t-106 -73l-142 173q68 72 170 119.5t231 47.5q236 0 379 -132.5t143 -350.5q0 -128 -47.5 -244.5t-129.5 -201 t-196.5 -134t-242.5 -49.5q-157 0 -265 56.5t-166 152.5z" />
<glyph unicode="&#x44e;" horiz-adv-x="1771" d="M19 0l234 1058h278l-86 -391h162q31 89 86 165t128.5 132.5t166.5 88.5t195 32q124 0 224 -36.5t166 -101.5t101 -153t35 -192q0 -122 -46 -236.5t-125 -201t-194.5 -139t-245.5 -52.5q-119 0 -216.5 33.5t-163.5 93.5t-103.5 142.5t-42.5 180.5h-181l-92 -423h-280z M859 469q0 -115 66.5 -181.5t180.5 -66.5q90 0 163 52.5t112 136.5t39 180q0 76 -29.5 131.5t-84.5 85.5t-131 30q-55 0 -104.5 -20t-87.5 -55.5t-66 -82t-43 -100.5t-15 -110z" />
<glyph unicode="&#x44f;" horiz-adv-x="1255" d="M-15 0l341 399q-78 32 -127.5 101.5t-49.5 168.5q0 75 28.5 144.5t80 124.5t130.5 87.5t173 32.5h675l-232 -1058h-279l80 364h-207l-287 -364h-326zM434 694q0 -30 14 -52t41 -34t65 -12h301l50 228h-330q-62 0 -101.5 -37t-39.5 -93z" />
<glyph unicode="&#x451;" horiz-adv-x="1211" d="M61 449q0 103 29.5 198.5t84.5 174.5t129.5 138t169.5 92t199 33q101 0 188 -33t150.5 -93t100 -150t36.5 -198q0 -44 -6.5 -93t-14.5 -77h-788v-27q0 -35 18.5 -72.5t53 -70.5t92 -54.5t126.5 -21.5q71 0 145.5 21t122.5 58l87 -191q-76 -52 -175.5 -81t-199.5 -29 q-166 0 -289.5 57t-191 165t-67.5 254zM368 629h531v22q0 40 -15 77t-43.5 68t-76.5 49t-109 18q-107 0 -187 -70.5t-100 -163.5zM423 1321q0 66 51 115.5t116 49.5q57 0 94 -37t37 -94q0 -65 -50.5 -115t-116.5 -50q-56 0 -93.5 37.5t-37.5 93.5zM885 1321q0 66 51 115.5 t116 49.5q58 0 94.5 -37t36.5 -94q0 -65 -50.5 -115t-116.5 -50q-56 0 -93.5 37.5t-37.5 93.5z" />
<glyph unicode="&#x452;" horiz-adv-x="1279" d="M27 0l253 1157h-127l33 160h128l35 145h278l-33 -145h316l-32 -160h-319l-51 -237q73 69 180 117t228 48q170 0 237.5 -87.5t34.5 -246.5l-174 -780q-38 -186 -158 -293t-306 -107q-96 0 -145.5 16t-101.5 58l122 208q26 -28 55 -41t74 -13q44 0 79.5 18t62.5 57t40 97 l147 673q25 105 -15.5 149t-137.5 44q-51 0 -103 -18.5t-92 -45.5t-73 -60l-155 -713h-280z" />
<glyph unicode="&#x453;" horiz-adv-x="994" d="M19 0l234 1058h816l-55 -243h-539l-176 -815h-280zM569 1219l364 315h261l-425 -315h-200z" />
<glyph unicode="&#x454;" horiz-adv-x="1092" d="M61 456q0 103 30.5 199t86.5 173.5t131.5 135.5t170 89.5t197.5 31.5q156 0 263.5 -56t165.5 -153l-194 -148q-35 55 -97.5 88t-135.5 33q-103 0 -183 -57.5t-119 -151.5h436l-46 -215h-418q16 -100 86.5 -156t171.5 -56q33 0 66.5 7.5t63.5 20.5t56 31.5t46 41.5 l143 -174q-68 -71 -170 -119t-231 -48q-236 0 -378 132.5t-142 350.5z" />
<glyph unicode="&#x455;" horiz-adv-x="1044" d="M-19 165l155 186q51 -63 157 -115t213 -52q68 0 110.5 33.5t42.5 77.5q0 28 -23 50.5t-60.5 38t-86 33t-98.5 34t-98 42t-86 55.5t-61 76.5t-23 103.5q0 69 29 133t82.5 114t137.5 80t187 30q133 0 253 -47t196 -126l-142 -178q-41 53 -130.5 95.5t-181.5 42.5 q-71 0 -112 -30t-41 -73q0 -23 23 -43t61 -34t86 -31t98.5 -33.5t99 -42.5t86 -57t60.5 -78.5t23 -104.5q0 -76 -31 -143.5t-88.5 -118t-145 -80.5t-193.5 -30q-147 0 -279.5 50t-219.5 142z" />
<glyph unicode="&#x456;" horiz-adv-x="554" d="M19 0l236 1058h278l-234 -1058h-280zM285 1315q0 57 29.5 101.5t71 65.5t85.5 21q65 0 108.5 -41t43.5 -101q0 -35 -11.5 -66t-30.5 -53t-43.5 -38t-51 -23.5t-52.5 -7.5q-63 0 -106 41t-43 101z" />
<glyph unicode="&#x457;" horiz-adv-x="554" d="M19 0l236 1058h278l-234 -1058h-280zM75 1321q0 66 50.5 115.5t115.5 49.5q58 0 94.5 -37t36.5 -94q0 -65 -50 -115t-115 -50q-57 0 -94.5 37.5t-37.5 93.5zM537 1321q0 66 50.5 115.5t115.5 49.5q58 0 95 -37t37 -94q0 -65 -50.5 -115t-115.5 -50q-56 0 -94 37.5 t-38 93.5z" />
<glyph unicode="&#x458;" horiz-adv-x="554" d="M-412 -339l117 199q48 -61 138 -61q129 0 168 172l244 1087h278l-244 -1087q-20 -94 -52.5 -165t-80.5 -125t-117 -82t-158 -28q-197 0 -293 90zM285 1315q0 57 29.5 101.5t71 65.5t85.5 21q65 0 108.5 -41t43.5 -101q0 -35 -11.5 -66t-30.5 -53t-43.5 -38t-51 -23.5 t-52.5 -7.5q-63 0 -106 41t-43 101z" />
<glyph unicode="&#x459;" horiz-adv-x="1928" d="M-86 -27l51 228q65 0 122.5 78t123.5 267l180 512h856l-81 -364h296q167 0 263 -83.5t96 -219.5q0 -76 -28 -145.5t-79 -124.5t-130 -88t-173 -33h-675l176 815h-333l-102 -302q-93 -278 -227.5 -409t-335.5 -131zM1065 234h331q63 0 102 37.5t39 92.5q0 46 -32 72 t-89 26h-301z" />
<glyph unicode="&#x45a;" horiz-adv-x="1928" d="M19 0l234 1058h278l-86 -385h438l85 385h279l-86 -385h311q161 0 255 -81t94 -213q0 -74 -27.5 -142t-77 -121t-126 -84.5t-168.5 -31.5h-686l92 429h-435l-94 -429h-280zM1065 234h342q28 0 52 9t40.5 25t25.5 37.5t9 45.5q0 27 -12.5 47t-37.5 30.5t-60 10.5h-313z" />
<glyph unicode="&#x45b;" horiz-adv-x="1279" d="M25 0l253 1157h-127l37 160h126l33 145h278l-33 -145h320l-36 -160h-320l-50 -237q169 165 353 165q152 0 241.5 -73.5t89.5 -196.5q0 -34 -11 -87l-160 -728h-279l138 636q11 42 11 65q0 70 -49 103t-132 33q-65 0 -130 -36t-118 -88l-157 -713h-278z" />
<glyph unicode="&#x45c;" horiz-adv-x="1171" d="M19 0l236 1058h278l-104 -453l491 453h355l-526 -479l305 -579h-337l-196 414l-164 -142l-58 -272h-280zM613 1219l364 315h261l-425 -315h-200z" />
<glyph unicode="&#x45e;" horiz-adv-x="1123" d="M-105 -403l92 240q40 -17 107 -17q43 0 73.5 17.5t58.5 57.5l65 99l-188 1064h290l111 -736l443 736h306l-770 -1231q-87 -140 -182 -198t-228 -58q-102 0 -178 26zM341 1357l144 102q30 -64 89 -99.5t141 -35.5q162 0 291 135l105 -102q-87 -91 -198 -142.5t-227 -51.5 q-115 0 -206 52t-139 142z" />
<glyph unicode="&#x45f;" horiz-adv-x="1270" d="M19 0l234 1058h278l-180 -815h438l179 815h279l-233 -1058h-359l-59 -276h-280l61 276h-358z" />
<glyph unicode="&#x490;" horiz-adv-x="1250" d="M27 0l320 1462h720l60 269h313l-119 -543h-723l-261 -1188h-310z" />
<glyph unicode="&#x491;" horiz-adv-x="994" d="M19 0l234 1058h538l62 276h278l-117 -519h-539l-176 -815h-280z" />
<glyph unicode="&#x2000;" horiz-adv-x="950" />
<glyph unicode="&#x2001;" horiz-adv-x="1900" />
<glyph unicode="&#x2002;" horiz-adv-x="950" />
<glyph unicode="&#x2003;" horiz-adv-x="1900" />
<glyph unicode="&#x2004;" horiz-adv-x="633" />
<glyph unicode="&#x2005;" horiz-adv-x="475" />
<glyph unicode="&#x2006;" horiz-adv-x="316" />
<glyph unicode="&#x2007;" horiz-adv-x="316" />
<glyph unicode="&#x2008;" horiz-adv-x="237" />
<glyph unicode="&#x2009;" horiz-adv-x="111" />
<glyph unicode="&#x200a;" horiz-adv-x="105" />
<glyph unicode="&#x2010;" horiz-adv-x="656" d="M37 412l53 236h525l-52 -236h-526z" />
<glyph unicode="&#x2011;" horiz-adv-x="656" d="M37 412l53 236h525l-52 -236h-526z" />
<glyph unicode="&#x2012;" horiz-adv-x="656" d="M37 412l53 236h525l-52 -236h-526z" />
<glyph unicode="&#x2013;" horiz-adv-x="1298" d="M37 412l53 236h1168l-53 -236h-1168z" />
<glyph unicode="&#x2014;" horiz-adv-x="1824" d="M37 412l53 236h1694l-53 -236h-1694z" />
<glyph unicode="&#x2015;" horiz-adv-x="1298" d="M37 412l53 236h1168l-53 -236h-1168z" />
<glyph unicode="&#x2018;" horiz-adv-x="558" d="M199 1045q0 126 92 248.5t230 189.5l100 -103q-67 -29 -129 -79.5t-86 -104.5q6 2 21 2q57 0 96.5 -38t39.5 -104q0 -77 -59.5 -132.5t-135.5 -55.5q-70 0 -119.5 47t-49.5 130z" />
<glyph unicode="&#x2019;" horiz-adv-x="558" d="M215 968q42 19 83 46.5t77.5 64.5t53.5 73h-21q-58 0 -97 37.5t-39 105.5q0 75 59.5 131.5t135.5 56.5q70 0 120.5 -47t50.5 -132q0 -123 -92 -246.5t-230 -191.5z" />
<glyph unicode="&#x201a;" d="M-40 -184q67 29 129 79.5t86 104.5h-24q-56 0 -95 37.5t-39 104.5q0 76 59.5 132.5t134.5 56.5q71 0 120.5 -47.5t49.5 -132.5q0 -124 -92 -247.5t-230 -190.5z" />
<glyph unicode="&#x201b;" horiz-adv-x="558" d="M263 1190q0 72 21.5 130t56.5 92.5t74.5 52.5t79.5 18q70 0 114 -45t44 -112q0 -77 -53.5 -125.5t-126.5 -48.5q-38 0 -65 14q1 -58 37 -126.5t88 -112.5l-121 -72q-78 77 -113.5 157t-35.5 178z" />
<glyph unicode="&#x201c;" horiz-adv-x="1005" d="M201 1045q0 126 92 248.5t230 189.5l102 -103q-66 -29 -128 -79.5t-87 -104.5q4 2 21 2q58 0 97 -38t39 -104q0 -77 -59.5 -132.5t-135.5 -55.5q-70 0 -120.5 47t-50.5 130zM648 1045q0 83 42 168.5t115 155.5t163 114l101 -103q-66 -29 -127.5 -79.5t-86.5 -104.5 q4 2 21 2q58 0 97 -38t39 -104q0 -51 -28 -95t-73 -68.5t-94 -24.5q-71 0 -120 47t-49 130z" />
<glyph unicode="&#x201d;" horiz-adv-x="1005" d="M215 968q42 19 83 46.5t77.5 64.5t53.5 73h-21q-58 0 -97 37.5t-39 105.5q0 75 59.5 131.5t135.5 56.5q70 0 120.5 -47t50.5 -132q0 -123 -92 -246.5t-230 -191.5zM661 968q42 19 83.5 46.5t78.5 64.5t53 73h-23q-58 0 -96 37.5t-38 105.5q0 50 27.5 93.5t72 69 t93.5 25.5q72 0 121.5 -47t49.5 -132q0 -123 -92 -246.5t-230 -191.5z" />
<glyph unicode="&#x201e;" horiz-adv-x="1005" d="M-40 -184q67 29 129 79.5t86 104.5h-24q-56 0 -95 37.5t-39 104.5q0 76 59.5 132.5t134.5 56.5q71 0 120.5 -47.5t49.5 -132.5q0 -124 -92 -247.5t-230 -190.5zM406 -184q41 19 82.5 46t78.5 64t54 74h-23q-37 0 -67.5 15.5t-49.5 48.5t-19 78q0 30 11 59t29.5 52 t43 40.5t53.5 27.5t58 10q70 0 119.5 -47.5t49.5 -132.5q0 -124 -92 -247.5t-230 -190.5z" />
<glyph unicode="&#x2020;" horiz-adv-x="606" d="M178 1144l31 136l192 -7l38 210h148l-56 -210l197 7l-31 -136l-193 8l-88 -435h-148l106 435z" />
<glyph unicode="&#x2021;" horiz-adv-x="606" d="M57 600l31 136l190 -8l94 424l-194 -8l31 136l192 -7l38 210h148l-56 -210l197 7l-31 -136l-193 8l-94 -424l197 8l-30 -136l-194 7l-38 -212h-150l58 212z" />
<glyph unicode="&#x2022;" horiz-adv-x="784" d="M129 506q0 76 40.5 142t107.5 104.5t144 38.5q100 0 167 -67t67 -168q0 -76 -40 -141.5t-107.5 -104t-143.5 -38.5q-101 0 -168 67t-67 167z" />
<glyph unicode="&#x2026;" horiz-adv-x="1682" d="M17 138q0 51 27 96t72 71t97 26q67 0 113 -48t46 -116q0 -79 -57 -136.5t-135 -57.5q-67 0 -115 48.5t-48 116.5zM579 138q0 78 58 135.5t137 57.5q67 0 113 -48t46 -116q0 -79 -57 -136.5t-136 -57.5q-67 0 -114 48.5t-47 116.5zM1140 138q0 51 26.5 96t71.5 71t96 26 q67 0 114 -48t47 -116q0 -79 -57 -136.5t-136 -57.5q-67 0 -114.5 48.5t-47.5 116.5z" />
<glyph unicode="&#x202f;" horiz-adv-x="380" />
<glyph unicode="&#x2030;" horiz-adv-x="2457" d="M167 0l1255 1462h167l-1258 -1462h-164zM180 1058q0 93 33 173.5t88 135t129 85.5t155 31q94 0 172.5 -35.5t127 -105.5t48.5 -161q0 -93 -32.5 -173t-87.5 -135t-129 -86t-155 -31q-95 0 -173.5 35.5t-127 105.5t-48.5 161zM377 1076q0 -64 45 -106.5t115 -42.5 q83 0 141 65.5t58 168.5q0 65 -44.5 107.5t-114.5 42.5q-83 0 -141.5 -65.5t-58.5 -169.5zM809 278q0 93 33 173.5t89 135t129.5 85.5t153.5 31q95 0 175 -36t128.5 -106.5t48.5 -161.5q0 -93 -33 -173.5t-88.5 -135t-129.5 -86t-154 -31.5q-95 0 -174.5 36.5t-128.5 107 t-49 161.5zM1010 295q0 -66 43.5 -108.5t112.5 -42.5q84 0 142.5 66.5t58.5 170.5q0 64 -44.5 107t-113.5 43q-54 0 -99.5 -29.5t-72.5 -83.5t-27 -123zM1606 278q0 93 33 173.5t89 135t129.5 85.5t154.5 31q95 0 174.5 -36t129 -106.5t49.5 -161.5q0 -93 -33.5 -173.5 t-89 -135t-129.5 -86t-154 -31.5q-95 0 -174.5 36.5t-129 107t-49.5 161.5zM1808 295q0 -66 43.5 -108.5t114.5 -42.5q82 0 140.5 66.5t58.5 170.5q0 64 -44.5 107t-113.5 43q-83 0 -141 -66t-58 -170z" />
<glyph unicode="&#x2039;" horiz-adv-x="738" d="M63 533l439 387h265l-447 -399l255 -383h-249z" />
<glyph unicode="&#x203a;" horiz-adv-x="738" d="M-25 138l448 399l-254 383h247l263 -394l-438 -388h-266z" />
<glyph unicode="&#x203e;" horiz-adv-x="795" d="M153 1232l35 157h794l-35 -157h-794z" />
<glyph unicode="&#x2044;" horiz-adv-x="347" d="M-495 0l1256 1462h168l-1257 -1462h-167z" />
<glyph unicode="&#x205f;" horiz-adv-x="475" />
<glyph unicode="&#x20ac;" horiz-adv-x="1553" d="M37 493l38 171h82q4 71 16 136h-68l37 170h79q65 158 185 275.5t275 179t327 61.5q104 0 196 -22t162 -60t127.5 -91.5t97 -113t65.5 -128.5l-299 -101q-42 114 -139 176.5t-225 62.5q-127 0 -238 -63.5t-183 -175.5h561l-39 -170h-594q-17 -70 -17 -136h580l-38 -171 h-517q44 -112 145 -178t242 -66q93 0 186.5 46t156.5 123l239 -161q-60 -78 -136.5 -135t-156.5 -88.5t-156 -46t-152 -14.5q-177 0 -325.5 63t-248.5 181.5t-131 275.5h-134z" />
<glyph unicode="&#x2122;" horiz-adv-x="994" d="M230 1405l11 57h334l-12 -57h-136l-94 -426h-61l94 426h-136zM548 979l105 483h94l64 -351l217 351h94l-106 -483h-60l87 399l-252 -399h-17l-77 399l-88 -399h-61z" />
<glyph unicode="&#x25fc;" horiz-adv-x="1062" d="M0 0v1063h1063v-1063h-1063z" />
<hkern u1="K" u2="a" k="29" />
<hkern u1="L" u2="a" k="14" />
<hkern u1="P" u2="a" k="41" />
<hkern u1="R" u2="a" k="41" />
<hkern u1="T" u2="a" k="160" />
<hkern u1="V" u2="a" k="137" />
<hkern u1="W" u2="a" k="82" />
<hkern u1="Y" u2="a" k="227" />
<hkern u1="a" u2="&#x2122;" k="27" />
<hkern u1="a" u2="&#x201d;" k="27" />
<hkern u1="a" u2="&#x201c;" k="27" />
<hkern u1="a" u2="&#x2019;" k="27" />
<hkern u1="a" u2="&#x2018;" k="27" />
<hkern u1="a" u2="&#x42a;" k="193" />
<hkern u1="a" u2="&#x427;" k="193" />
<hkern u1="a" u2="&#x422;" k="193" />
<hkern u1="a" u2="&#x40b;" k="193" />
<hkern u1="a" u2="&#x402;" k="193" />
<hkern u1="a" u2="&#xae;" k="27" />
<hkern u1="a" u2="Y" k="225" />
<hkern u1="a" u2="W" k="96" />
<hkern u1="a" u2="V" k="150" />
<hkern u1="a" u2="T" k="193" />
<hkern u1="a" u2="&#x3f;" k="88" />
<hkern u1="a" u2="&#x27;" k="27" />
<hkern u1="a" u2="&#x22;" k="27" />
<hkern u1="&#x403;" u2="a" k="160" />
<hkern u1="&#x40c;" u2="a" k="29" />
<hkern u1="&#x40e;" u2="a" k="137" />
<hkern u1="&#x413;" u2="a" k="160" />
<hkern u1="&#x416;" u2="a" k="29" />
<hkern u1="&#x41a;" u2="a" k="29" />
<hkern u1="&#x420;" u2="a" k="41" />
<hkern u1="&#x422;" u2="a" k="160" />
<hkern u1="&#x423;" u2="a" k="137" />
<hkern u1="&#x490;" u2="a" k="160" />
<hkern g1="afii10092,afii10094,afii10106,afii10107" 	g2="dagger" 	k="152" />
<hkern g1="afii10092,afii10094,afii10106,afii10107" 	g2="daggerdbl" 	k="41" />
<hkern g1="afii10092,afii10094,afii10106,afii10107" 	g2="question" 	k="111" />
<hkern g1="afii10092,afii10094,afii10106,afii10107" 	g2="quotedbl,quotesingle,registered,quoteleft,quoteright,quotedblleft,quotedblright,trademark" 	k="164" />
<hkern g1="afii10092,afii10094,afii10106,afii10107" 	g2="afii10084,afii10092" 	k="111" />
<hkern g1="afii10092,afii10094,afii10106,afii10107" 	g2="C,G,O,Q,afii10053,afii10032,afii10035,afii10038" 	k="61" />
<hkern g1="afii10092,afii10094,afii10106,afii10107" 	g2="asterisk" 	k="117" />
<hkern g1="afii10092,afii10094,afii10106,afii10107" 	g2="U" 	k="39" />
<hkern g1="afii10092,afii10094,afii10106,afii10107" 	g2="T,afii10051,afii10060,afii10036,afii10041,afii10044" 	k="225" />
<hkern g1="afii10092,afii10094,afii10106,afii10107" 	g2="W" 	k="113" />
<hkern g1="afii10092,afii10094,afii10106,afii10107" 	g2="V" 	k="117" />
<hkern g1="afii10092,afii10094,afii10106,afii10107" 	g2="Y" 	k="190" />
<hkern g1="afii10092,afii10094,afii10106,afii10107" 	g2="bullet" 	k="35" />
<hkern g1="B,afii10018,afii10019,afii10025" 	g2="quotedbl,quotesingle,registered,quoteleft,quoteright,quotedblleft,quotedblright,trademark" 	k="20" />
<hkern g1="B,afii10018,afii10019,afii10025" 	g2="T,afii10051,afii10060,afii10036,afii10041,afii10044" 	k="29" />
<hkern g1="B,afii10018,afii10019,afii10025" 	g2="W" 	k="20" />
<hkern g1="B,afii10018,afii10019,afii10025" 	g2="V" 	k="35" />
<hkern g1="B,afii10018,afii10019,afii10025" 	g2="Y" 	k="61" />
<hkern g1="B,afii10018,afii10019,afii10025" 	g2="afii10069,afii10077,afii10106" 	k="20" />
<hkern g1="afii10067,afii10073" 	g2="question" 	k="96" />
<hkern g1="afii10067,afii10073" 	g2="T,afii10051,afii10060,afii10036,afii10041,afii10044" 	k="57" />
<hkern g1="afii10067,afii10073" 	g2="V" 	k="41" />
<hkern g1="afii10067,afii10073" 	g2="Y" 	k="82" />
<hkern g1="C,afii10053,afii10035" 	g2="question" 	k="14" />
<hkern g1="C,afii10053,afii10035" 	g2="C,G,O,Q,afii10053,afii10032,afii10035,afii10038" 	k="-14" />
<hkern g1="C,afii10053,afii10035" 	g2="S,afii10054,afii10025" 	k="-14" />
<hkern g1="C,afii10053,afii10035" 	g2="T,afii10051,afii10060,afii10036,afii10041,afii10044" 	k="14" />
<hkern g1="C,afii10053,afii10035" 	g2="W" 	k="20" />
<hkern g1="C,afii10053,afii10035" 	g2="V" 	k="29" />
<hkern g1="C,afii10053,afii10035" 	g2="Y" 	k="68" />
<hkern g1="C,afii10053,afii10035" 	g2="afii10069,afii10077,afii10106" 	k="14" />
<hkern g1="C,afii10053,afii10035" 	g2="A,afii10058,afii10017,afii10021,afii10029" 	k="14" />
<hkern g1="D,O,Q,afii10032,afii10038,afii10047,afii10048" 	g2="question" 	k="47" />
<hkern g1="D,O,Q,afii10032,afii10038,afii10047,afii10048" 	g2="quotedbl,quotesingle,registered,quoteleft,quoteright,quotedblleft,quotedblright,trademark" 	k="20" />
<hkern g1="D,O,Q,afii10032,afii10038,afii10047,afii10048" 	g2="J,afii10057" 	k="41" />
<hkern g1="D,O,Q,afii10032,afii10038,afii10047,afii10048" 	g2="T,afii10051,afii10060,afii10036,afii10041,afii10044" 	k="76" />
<hkern g1="D,O,Q,afii10032,afii10038,afii10047,afii10048" 	g2="W" 	k="70" />
<hkern g1="D,O,Q,afii10032,afii10038,afii10047,afii10048" 	g2="V" 	k="76" />
<hkern g1="D,O,Q,afii10032,afii10038,afii10047,afii10048" 	g2="Y" 	k="129" />
<hkern g1="D,O,Q,afii10032,afii10038,afii10047,afii10048" 	g2="afii10069,afii10077,afii10106" 	k="61" />
<hkern g1="D,O,Q,afii10032,afii10038,afii10047,afii10048" 	g2="A,afii10058,afii10017,afii10021,afii10029" 	k="35" />
<hkern g1="D,O,Q,afii10032,afii10038,afii10047,afii10048" 	g2="Z" 	k="29" />
<hkern g1="D,O,Q,afii10032,afii10038,afii10047,afii10048" 	g2="comma,period,quotesinglbase,quotedblbase,ellipsis" 	k="49" />
<hkern g1="D,O,Q,afii10032,afii10038,afii10047,afii10048" 	g2="X,afii10062,afii10024,afii10037,afii10039" 	k="61" />
<hkern g1="F" 	g2="J,afii10057" 	k="143" />
<hkern g1="F" 	g2="afii10069,afii10077,afii10106" 	k="102" />
<hkern g1="F" 	g2="A,afii10058,afii10017,afii10021,afii10029" 	k="88" />
<hkern g1="F" 	g2="comma,period,quotesinglbase,quotedblbase,ellipsis" 	k="102" />
<hkern g1="F" 	g2="ampersand" 	k="27" />
<hkern g1="G" 	g2="question" 	k="27" />
<hkern g1="G" 	g2="T,afii10051,afii10060,afii10036,afii10041,afii10044" 	k="41" />
<hkern g1="G" 	g2="W" 	k="31" />
<hkern g1="G" 	g2="V" 	k="55" />
<hkern g1="G" 	g2="Y" 	k="82" />
<hkern g1="G" 	g2="A,afii10058,afii10017,afii10021,afii10029" 	k="14" />
<hkern g1="G" 	g2="X,afii10062,afii10024,afii10037,afii10039" 	k="14" />
<hkern g1="K,afii10061,afii10024,afii10028" 	g2="afii10084,afii10092" 	k="115" />
<hkern g1="K,afii10061,afii10024,afii10028" 	g2="C,G,O,Q,afii10053,afii10032,afii10035,afii10038" 	k="96" />
<hkern g1="K,afii10061,afii10024,afii10028" 	g2="Y" 	k="23" />
<hkern g1="K,afii10061,afii10024,afii10028" 	g2="f" 	k="68" />
<hkern g1="K,afii10061,afii10024,afii10028" 	g2="u" 	k="41" />
<hkern g1="K,afii10061,afii10024,afii10028" 	g2="t" 	k="102" />
<hkern g1="K,afii10061,afii10024,afii10028" 	g2="w,afii10089" 	k="82" />
<hkern g1="K,afii10061,afii10024,afii10028" 	g2="v" 	k="123" />
<hkern g1="K,afii10061,afii10024,afii10028" 	g2="y,afii10085,afii10110" 	k="123" />
<hkern g1="K,afii10061,afii10024,afii10028" 	g2="hyphen,endash,emdash" 	k="102" />
<hkern g1="K,afii10061,afii10024,afii10028" 	g2="a,c,d,e,g,o,q,afii10065,afii10070,afii10080,afii10083,afii10086,afii10101" 	k="55" />
<hkern g1="K,afii10061,afii10024,afii10028" 	g2="x,afii10072,afii10087" 	k="68" />
<hkern g1="L" 	g2="dagger" 	k="266" />
<hkern g1="L" 	g2="daggerdbl" 	k="186" />
<hkern g1="L" 	g2="question" 	k="219" />
<hkern g1="L" 	g2="quotedbl,quotesingle,registered,quoteleft,quoteright,quotedblleft,quotedblright,trademark" 	k="279" />
<hkern g1="L" 	g2="afii10084,afii10092" 	k="152" />
<hkern g1="L" 	g2="C,G,O,Q,afii10053,afii10032,afii10035,afii10038" 	k="55" />
<hkern g1="L" 	g2="asterisk" 	k="342" />
<hkern g1="L" 	g2="U" 	k="49" />
<hkern g1="L" 	g2="T,afii10051,afii10060,afii10036,afii10041,afii10044" 	k="205" />
<hkern g1="L" 	g2="W" 	k="150" />
<hkern g1="L" 	g2="V" 	k="184" />
<hkern g1="L" 	g2="Y" 	k="260" />
<hkern g1="L" 	g2="u" 	k="14" />
<hkern g1="L" 	g2="t" 	k="76" />
<hkern g1="L" 	g2="w,afii10089" 	k="70" />
<hkern g1="L" 	g2="v" 	k="111" />
<hkern g1="L" 	g2="y,afii10085,afii10110" 	k="111" />
<hkern g1="L" 	g2="ampersand" 	k="8" />
<hkern g1="L" 	g2="a,c,d,e,g,o,q,afii10065,afii10070,afii10080,afii10083,afii10086,afii10101" 	k="23" />
<hkern g1="P,afii10034" 	g2="J,afii10057" 	k="246" />
<hkern g1="P,afii10034" 	g2="W" 	k="12" />
<hkern g1="P,afii10034" 	g2="V" 	k="14" />
<hkern g1="P,afii10034" 	g2="Y" 	k="41" />
<hkern g1="P,afii10034" 	g2="afii10069,afii10077,afii10106" 	k="164" />
<hkern g1="P,afii10034" 	g2="A,afii10058,afii10017,afii10021,afii10029" 	k="152" />
<hkern g1="P,afii10034" 	g2="comma,period,quotesinglbase,quotedblbase,ellipsis" 	k="178" />
<hkern g1="P,afii10034" 	g2="X,afii10062,afii10024,afii10037,afii10039" 	k="41" />
<hkern g1="P,afii10034" 	g2="ampersand" 	k="68" />
<hkern g1="P,afii10034" 	g2="hyphen,endash,emdash" 	k="55" />
<hkern g1="P,afii10034" 	g2="a,c,d,e,g,o,q,afii10065,afii10070,afii10080,afii10083,afii10086,afii10101" 	k="35" />
<hkern g1="R" 	g2="quotedbl,quotesingle,registered,quoteleft,quoteright,quotedblleft,quotedblright,trademark" 	k="14" />
<hkern g1="R" 	g2="T,afii10051,afii10060,afii10036,afii10041,afii10044" 	k="20" />
<hkern g1="R" 	g2="V" 	k="20" />
<hkern g1="R" 	g2="Y" 	k="49" />
<hkern g1="R" 	g2="ampersand" 	k="12" />
<hkern g1="R" 	g2="a,c,d,e,g,o,q,afii10065,afii10070,afii10080,afii10083,afii10086,afii10101" 	k="61" />
<hkern g1="R" 	g2="s,afii10073,afii10095,afii10102" 	k="27" />
<hkern g1="S,afii10054" 	g2="afii10084,afii10092" 	k="27" />
<hkern g1="S,afii10054" 	g2="T,afii10051,afii10060,afii10036,afii10041,afii10044" 	k="47" />
<hkern g1="S,afii10054" 	g2="W" 	k="20" />
<hkern g1="S,afii10054" 	g2="V" 	k="29" />
<hkern g1="S,afii10054" 	g2="Y" 	k="72" />
<hkern g1="S,afii10054" 	g2="t" 	k="29" />
<hkern g1="S,afii10054" 	g2="w,afii10089" 	k="14" />
<hkern g1="S,afii10054" 	g2="v" 	k="27" />
<hkern g1="S,afii10054" 	g2="y,afii10085,afii10110" 	k="27" />
<hkern g1="S,afii10054" 	g2="A,afii10058,afii10017,afii10021,afii10029" 	k="8" />
<hkern g1="S,afii10054" 	g2="x,afii10072,afii10087" 	k="35" />
<hkern g1="T,afii10052,afii10020,afii10036,afii10050" 	g2="afii10084,afii10092" 	k="29" />
<hkern g1="T,afii10052,afii10020,afii10036,afii10050" 	g2="C,G,O,Q,afii10053,afii10032,afii10035,afii10038" 	k="23" />
<hkern g1="T,afii10052,afii10020,afii10036,afii10050" 	g2="J,afii10057" 	k="178" />
<hkern g1="T,afii10052,afii10020,afii10036,afii10050" 	g2="S,afii10054,afii10025" 	k="-8" />
<hkern g1="T,afii10052,afii10020,afii10036,afii10050" 	g2="f" 	k="43" />
<hkern g1="T,afii10052,afii10020,afii10036,afii10050" 	g2="u" 	k="139" />
<hkern g1="T,afii10052,afii10020,afii10036,afii10050" 	g2="w,afii10089" 	k="57" />
<hkern g1="T,afii10052,afii10020,afii10036,afii10050" 	g2="v" 	k="57" />
<hkern g1="T,afii10052,afii10020,afii10036,afii10050" 	g2="y,afii10085,afii10110" 	k="57" />
<hkern g1="T,afii10052,afii10020,afii10036,afii10050" 	g2="afii10069,afii10077,afii10106" 	k="184" />
<hkern g1="T,afii10052,afii10020,afii10036,afii10050" 	g2="A,afii10058,afii10017,afii10021,afii10029" 	k="111" />
<hkern g1="T,afii10052,afii10020,afii10036,afii10050" 	g2="comma,period,quotesinglbase,quotedblbase,ellipsis" 	k="199" />
<hkern g1="T,afii10052,afii10020,afii10036,afii10050" 	g2="ampersand" 	k="82" />
<hkern g1="T,afii10052,afii10020,afii10036,afii10050" 	g2="hyphen,endash,emdash" 	k="123" />
<hkern g1="T,afii10052,afii10020,afii10036,afii10050" 	g2="a,c,d,e,g,o,q,afii10065,afii10070,afii10080,afii10083,afii10086,afii10101" 	k="201" />
<hkern g1="T,afii10052,afii10020,afii10036,afii10050" 	g2="x,afii10072,afii10087" 	k="78" />
<hkern g1="T,afii10052,afii10020,afii10036,afii10050" 	g2="s,afii10073,afii10095,afii10102" 	k="166" />
<hkern g1="T,afii10052,afii10020,afii10036,afii10050" 	g2="colon,semicolon" 	k="102" />
<hkern g1="T,afii10052,afii10020,afii10036,afii10050" 	g2="m,n,p,r,z,afii10067,afii10074,afii10076,afii10078,afii10079,afii10081,afii10082,afii10088,afii10090,afii10091,afii10093,afii10094,afii10096,afii10097,afii10100,afii10107,afii10193,afii10098" 	k="139" />
<hkern g1="afii10068,afii10084,afii10100,afii10098" 	g2="J,afii10057" 	k="125" />
<hkern g1="afii10068,afii10084,afii10100,afii10098" 	g2="T,afii10051,afii10060,afii10036,afii10041,afii10044" 	k="29" />
<hkern g1="afii10068,afii10084,afii10100,afii10098" 	g2="V" 	k="14" />
<hkern g1="afii10068,afii10084,afii10100,afii10098" 	g2="bullet" 	k="31" />
<hkern g1="afii10068,afii10084,afii10100,afii10098" 	g2="afii10069,afii10077,afii10106" 	k="82" />
<hkern g1="afii10068,afii10084,afii10100,afii10098" 	g2="A,afii10058,afii10017,afii10021,afii10029" 	k="55" />
<hkern g1="afii10068,afii10084,afii10100,afii10098" 	g2="comma,period,quotesinglbase,quotedblbase,ellipsis" 	k="123" />
<hkern g1="afii10068,afii10084,afii10100,afii10098" 	g2="ampersand" 	k="70" />
<hkern g1="afii10068,afii10084,afii10100,afii10098" 	g2="hyphen,endash,emdash" 	k="43" />
<hkern g1="J,U,afii10057" 	g2="J,afii10057" 	k="53" />
<hkern g1="J,U,afii10057" 	g2="afii10069,afii10077,afii10106" 	k="39" />
<hkern g1="J,U,afii10057" 	g2="A,afii10058,afii10017,afii10021,afii10029" 	k="47" />
<hkern g1="J,U,afii10057" 	g2="comma,period,quotesinglbase,quotedblbase,ellipsis" 	k="61" />
<hkern g1="V,afii10062,afii10037" 	g2="afii10084,afii10092" 	k="14" />
<hkern g1="V,afii10062,afii10037" 	g2="C,G,O,Q,afii10053,afii10032,afii10035,afii10038" 	k="8" />
<hkern g1="V,afii10062,afii10037" 	g2="J,afii10057" 	k="199" />
<hkern g1="V,afii10062,afii10037" 	g2="S,afii10054,afii10025" 	k="-27" />
<hkern g1="V,afii10062,afii10037" 	g2="f" 	k="55" />
<hkern g1="V,afii10062,afii10037" 	g2="u" 	k="115" />
<hkern g1="V,afii10062,afii10037" 	g2="t" 	k="35" />
<hkern g1="V,afii10062,afii10037" 	g2="w,afii10089" 	k="27" />
<hkern g1="V,afii10062,afii10037" 	g2="v" 	k="35" />
<hkern g1="V,afii10062,afii10037" 	g2="y,afii10085,afii10110" 	k="27" />
<hkern g1="V,afii10062,afii10037" 	g2="afii10069,afii10077,afii10106" 	k="76" />
<hkern g1="V,afii10062,afii10037" 	g2="A,afii10058,afii10017,afii10021,afii10029" 	k="76" />
<hkern g1="V,afii10062,afii10037" 	g2="comma,period,quotesinglbase,quotedblbase,ellipsis" 	k="184" />
<hkern g1="V,afii10062,afii10037" 	g2="ampersand" 	k="53" />
<hkern g1="V,afii10062,afii10037" 	g2="hyphen,endash,emdash" 	k="117" />
<hkern g1="V,afii10062,afii10037" 	g2="a,c,d,e,g,o,q,afii10065,afii10070,afii10080,afii10083,afii10086,afii10101" 	k="123" />
<hkern g1="V,afii10062,afii10037" 	g2="x,afii10072,afii10087" 	k="53" />
<hkern g1="V,afii10062,afii10037" 	g2="s,afii10073,afii10095,afii10102" 	k="102" />
<hkern g1="V,afii10062,afii10037" 	g2="m,n,p,r,z,afii10067,afii10074,afii10076,afii10078,afii10079,afii10081,afii10082,afii10088,afii10090,afii10091,afii10093,afii10094,afii10096,afii10097,afii10100,afii10107,afii10193,afii10098" 	k="115" />
<hkern g1="W" 	g2="C,G,O,Q,afii10053,afii10032,afii10035,afii10038" 	k="14" />
<hkern g1="W" 	g2="J,afii10057" 	k="121" />
<hkern g1="W" 	g2="S,afii10054,afii10025" 	k="-20" />
<hkern g1="W" 	g2="f" 	k="33" />
<hkern g1="W" 	g2="u" 	k="61" />
<hkern g1="W" 	g2="t" 	k="33" />
<hkern g1="W" 	g2="v" 	k="14" />
<hkern g1="W" 	g2="y,afii10085,afii10110" 	k="14" />
<hkern g1="W" 	g2="afii10069,afii10077,afii10106" 	k="92" />
<hkern g1="W" 	g2="A,afii10058,afii10017,afii10021,afii10029" 	k="76" />
<hkern g1="W" 	g2="comma,period,quotesinglbase,quotedblbase,ellipsis" 	k="131" />
<hkern g1="W" 	g2="ampersand" 	k="20" />
<hkern g1="W" 	g2="hyphen,endash,emdash" 	k="76" />
<hkern g1="W" 	g2="a,c,d,e,g,o,q,afii10065,afii10070,afii10080,afii10083,afii10086,afii10101" 	k="82" />
<hkern g1="W" 	g2="x,afii10072,afii10087" 	k="53" />
<hkern g1="W" 	g2="s,afii10073,afii10095,afii10102" 	k="59" />
<hkern g1="W" 	g2="m,n,p,r,z,afii10067,afii10074,afii10076,afii10078,afii10079,afii10081,afii10082,afii10088,afii10090,afii10091,afii10093,afii10094,afii10096,afii10097,afii10100,afii10107,afii10193,afii10098" 	k="61" />
<hkern g1="Y" 	g2="C,G,O,Q,afii10053,afii10032,afii10035,afii10038" 	k="35" />
<hkern g1="Y" 	g2="J,afii10057" 	k="240" />
<hkern g1="Y" 	g2="S,afii10054,afii10025" 	k="18" />
<hkern g1="Y" 	g2="f" 	k="123" />
<hkern g1="Y" 	g2="u" 	k="184" />
<hkern g1="Y" 	g2="t" 	k="68" />
<hkern g1="Y" 	g2="w,afii10089" 	k="123" />
<hkern g1="Y" 	g2="v" 	k="123" />
<hkern g1="Y" 	g2="y,afii10085,afii10110" 	k="123" />
<hkern g1="Y" 	g2="afii10069,afii10077,afii10106" 	k="135" />
<hkern g1="Y" 	g2="A,afii10058,afii10017,afii10021,afii10029" 	k="117" />
<hkern g1="Y" 	g2="comma,period,quotesinglbase,quotedblbase,ellipsis" 	k="184" />
<hkern g1="Y" 	g2="ampersand" 	k="90" />
<hkern g1="Y" 	g2="hyphen,endash,emdash" 	k="252" />
<hkern g1="Y" 	g2="a,c,d,e,g,o,q,afii10065,afii10070,afii10080,afii10083,afii10086,afii10101" 	k="254" />
<hkern g1="Y" 	g2="x,afii10072,afii10087" 	k="158" />
<hkern g1="Y" 	g2="s,afii10073,afii10095,afii10102" 	k="205" />
<hkern g1="Y" 	g2="colon,semicolon" 	k="143" />
<hkern g1="Y" 	g2="m,n,p,r,z,afii10067,afii10074,afii10076,afii10078,afii10079,afii10081,afii10082,afii10088,afii10090,afii10091,afii10093,afii10094,afii10096,afii10097,afii10100,afii10107,afii10193,afii10098" 	k="184" />
<hkern g1="Z" 	g2="C,G,O,Q,afii10053,afii10032,afii10035,afii10038" 	k="29" />
<hkern g1="ampersand" 	g2="quotedbl,quotesingle,registered,quoteleft,quoteright,quotedblleft,quotedblright,trademark" 	k="23" />
<hkern g1="ampersand" 	g2="afii10084,afii10092" 	k="139" />
<hkern g1="ampersand" 	g2="T,afii10051,afii10060,afii10036,afii10041,afii10044" 	k="166" />
<hkern g1="ampersand" 	g2="W" 	k="90" />
<hkern g1="ampersand" 	g2="V" 	k="131" />
<hkern g1="ampersand" 	g2="Y" 	k="201" />
<hkern g1="ampersand" 	g2="y,afii10085,afii10110" 	k="41" />
<hkern g1="asterisk" 	g2="J,afii10057" 	k="252" />
<hkern g1="asterisk" 	g2="afii10069,afii10077,afii10106" 	k="117" />
<hkern g1="asterisk" 	g2="A,afii10058,afii10017,afii10021,afii10029" 	k="186" />
<hkern g1="b,o,p,afii10080,afii10082,afii10086,afii10095,afii10096" 	g2="question" 	k="109" />
<hkern g1="b,o,p,afii10080,afii10082,afii10086,afii10095,afii10096" 	g2="quotedbl,quotesingle,registered,quoteleft,quoteright,quotedblleft,quotedblright,trademark" 	k="20" />
<hkern g1="b,o,p,afii10080,afii10082,afii10086,afii10095,afii10096" 	g2="T,afii10051,afii10060,afii10036,afii10041,afii10044" 	k="201" />
<hkern g1="b,o,p,afii10080,afii10082,afii10086,afii10095,afii10096" 	g2="W" 	k="82" />
<hkern g1="b,o,p,afii10080,afii10082,afii10086,afii10095,afii10096" 	g2="V" 	k="123" />
<hkern g1="b,o,p,afii10080,afii10082,afii10086,afii10095,afii10096" 	g2="Y" 	k="240" />
<hkern g1="b,o,p,afii10080,afii10082,afii10086,afii10095,afii10096" 	g2="comma,period,quotesinglbase,quotedblbase,ellipsis" 	k="8" />
<hkern g1="b,o,p,afii10080,afii10082,afii10086,afii10095,afii10096" 	g2="x,afii10072,afii10087" 	k="70" />
<hkern g1="bullet" 	g2="afii10084,afii10092" 	k="84" />
<hkern g1="bullet" 	g2="afii10069,afii10077,afii10106" 	k="8" />
<hkern g1="c,cent,afii10083,afii10101" 	g2="question" 	k="55" />
<hkern g1="c,cent,afii10083,afii10101" 	g2="quotedbl,quotesingle,registered,quoteleft,quoteright,quotedblleft,quotedblright,trademark" 	k="14" />
<hkern g1="c,cent,afii10083,afii10101" 	g2="T,afii10051,afii10060,afii10036,afii10041,afii10044" 	k="145" />
<hkern g1="c,cent,afii10083,afii10101" 	g2="W" 	k="55" />
<hkern g1="c,cent,afii10083,afii10101" 	g2="V" 	k="88" />
<hkern g1="c,cent,afii10083,afii10101" 	g2="Y" 	k="137" />
<hkern g1="colon,semicolon" 	g2="T,afii10051,afii10060,afii10036,afii10041,afii10044" 	k="102" />
<hkern g1="colon,semicolon" 	g2="Y" 	k="143" />
<hkern g1="e,afii10070,afii10071" 	g2="question" 	k="88" />
<hkern g1="e,afii10070,afii10071" 	g2="quotedbl,quotesingle,registered,quoteleft,quoteright,quotedblleft,quotedblright,trademark" 	k="14" />
<hkern g1="e,afii10070,afii10071" 	g2="asterisk" 	k="29" />
<hkern g1="e,afii10070,afii10071" 	g2="T,afii10051,afii10060,afii10036,afii10041,afii10044" 	k="186" />
<hkern g1="e,afii10070,afii10071" 	g2="W" 	k="82" />
<hkern g1="e,afii10070,afii10071" 	g2="V" 	k="117" />
<hkern g1="e,afii10070,afii10071" 	g2="Y" 	k="225" />
<hkern g1="e,afii10070,afii10071" 	g2="comma,period,quotesinglbase,quotedblbase,ellipsis" 	k="8" />
<hkern g1="f" 	g2="question" 	k="-111" />
<hkern g1="f" 	g2="quotedbl,quotesingle,registered,quoteleft,quoteright,quotedblleft,quotedblright,trademark" 	k="-131" />
<hkern g1="f" 	g2="asterisk" 	k="-131" />
<hkern g1="f" 	g2="S,afii10054,afii10025" 	k="-55" />
<hkern g1="f" 	g2="U" 	k="-82" />
<hkern g1="f" 	g2="T,afii10051,afii10060,afii10036,afii10041,afii10044" 	k="-82" />
<hkern g1="f" 	g2="W" 	k="-137" />
<hkern g1="f" 	g2="V" 	k="-137" />
<hkern g1="f" 	g2="Y" 	k="-129" />
<hkern g1="f" 	g2="Z" 	k="-82" />
<hkern g1="f" 	g2="comma,period,quotesinglbase,quotedblbase,ellipsis" 	k="96" />
<hkern g1="f" 	g2="X,afii10062,afii10024,afii10037,afii10039" 	k="-82" />
<hkern g1="f" 	g2="ampersand" 	k="14" />
<hkern g1="f" 	g2="exclam,B,D,E,F,H,I,K,L,M,N,P,R" 	k="-82" />
<hkern g1="f" 	g2="parenright,bracketright,braceright" 	k="-137" />
<hkern g1="g,j,q,afii10105" 	g2="question" 	k="55" />
<hkern g1="g,j,q,afii10105" 	g2="T,afii10051,afii10060,afii10036,afii10041,afii10044" 	k="139" />
<hkern g1="g,j,q,afii10105" 	g2="W" 	k="61" />
<hkern g1="g,j,q,afii10105" 	g2="V" 	k="115" />
<hkern g1="g,j,q,afii10105" 	g2="Y" 	k="184" />
<hkern g1="g,j,q,afii10105" 	g2="j,afii10105" 	k="-109" />
<hkern g1="hyphen,endash,emdash" 	g2="afii10084,afii10092" 	k="43" />
<hkern g1="hyphen,endash,emdash" 	g2="W" 	k="76" />
<hkern g1="hyphen,endash,emdash" 	g2="V" 	k="117" />
<hkern g1="hyphen,endash,emdash" 	g2="Y" 	k="246" />
<hkern g1="hyphen,endash,emdash" 	g2="X,afii10062,afii10024,afii10037,afii10039" 	k="94" />
<hkern g1="k,afii10072,afii10076,afii10109" 	g2="T,afii10051,afii10060,afii10036,afii10041,afii10044" 	k="92" />
<hkern g1="k,afii10072,afii10076,afii10109" 	g2="W" 	k="53" />
<hkern g1="k,afii10072,afii10076,afii10109" 	g2="V" 	k="53" />
<hkern g1="k,afii10072,afii10076,afii10109" 	g2="Y" 	k="150" />
<hkern g1="k,afii10072,afii10076,afii10109" 	g2="bullet" 	k="49" />
<hkern g1="k,afii10072,afii10076,afii10109" 	g2="hyphen,endash,emdash" 	k="49" />
<hkern g1="k,afii10072,afii10076,afii10109" 	g2="a,c,d,e,g,o,q,afii10065,afii10070,afii10080,afii10083,afii10086,afii10101" 	k="12" />
<hkern g1="comma,period,quotesinglbase,quotedblbase,ellipsis" 	g2="quotedbl,quotesingle,registered,quoteleft,quoteright,quotedblleft,quotedblright,trademark" 	k="170" />
<hkern g1="comma,period,quotesinglbase,quotedblbase,ellipsis" 	g2="afii10084,afii10092" 	k="123" />
<hkern g1="comma,period,quotesinglbase,quotedblbase,ellipsis" 	g2="U" 	k="61" />
<hkern g1="comma,period,quotesinglbase,quotedblbase,ellipsis" 	g2="T,afii10051,afii10060,afii10036,afii10041,afii10044" 	k="199" />
<hkern g1="comma,period,quotesinglbase,quotedblbase,ellipsis" 	g2="W" 	k="131" />
<hkern g1="comma,period,quotesinglbase,quotedblbase,ellipsis" 	g2="V" 	k="172" />
<hkern g1="comma,period,quotesinglbase,quotedblbase,ellipsis" 	g2="Y" 	k="184" />
<hkern g1="comma,period,quotesinglbase,quotedblbase,ellipsis" 	g2="f" 	k="55" />
<hkern g1="comma,period,quotesinglbase,quotedblbase,ellipsis" 	g2="t" 	k="55" />
<hkern g1="comma,period,quotesinglbase,quotedblbase,ellipsis" 	g2="w,afii10089" 	k="76" />
<hkern g1="comma,period,quotesinglbase,quotedblbase,ellipsis" 	g2="v" 	k="131" />
<hkern g1="comma,period,quotesinglbase,quotedblbase,ellipsis" 	g2="y,afii10085,afii10110" 	k="111" />
<hkern g1="comma,period,quotesinglbase,quotedblbase,ellipsis" 	g2="a,c,d,e,g,o,q,afii10065,afii10070,afii10080,afii10083,afii10086,afii10101" 	k="8" />
<hkern g1="comma,period,quotesinglbase,quotedblbase,ellipsis" 	g2="j,afii10105" 	k="-82" />
<hkern g1="comma,period,quotesinglbase,quotedblbase,ellipsis" 	g2="seven" 	k="150" />
<hkern g1="comma,period,quotesinglbase,quotedblbase,ellipsis" 	g2="one" 	k="203" />
<hkern g1="comma,period,quotesinglbase,quotedblbase,ellipsis" 	g2="zero,six" 	k="43" />
<hkern g1="quotedbl,quotesingle,quoteleft,quoteright,quotedblleft,quotedblright" 	g2="C,G,O,Q,afii10053,afii10032,afii10035,afii10038" 	k="14" />
<hkern g1="quotedbl,quotesingle,quoteleft,quoteright,quotedblleft,quotedblright" 	g2="J,afii10057" 	k="217" />
<hkern g1="quotedbl,quotesingle,quoteleft,quoteright,quotedblleft,quotedblright" 	g2="afii10069,afii10077,afii10106" 	k="164" />
<hkern g1="quotedbl,quotesingle,quoteleft,quoteright,quotedblleft,quotedblright" 	g2="A,afii10058,afii10017,afii10021,afii10029" 	k="199" />
<hkern g1="quotedbl,quotesingle,quoteleft,quoteright,quotedblleft,quotedblright" 	g2="comma,period,quotesinglbase,quotedblbase,ellipsis" 	k="170" />
<hkern g1="quotedbl,quotesingle,quoteleft,quoteright,quotedblleft,quotedblright" 	g2="ampersand" 	k="-8" />
<hkern g1="quotedbl,quotesingle,quoteleft,quoteright,quotedblleft,quotedblright" 	g2="s,afii10073,afii10095,afii10102" 	k="61" />
<hkern g1="r" 	g2="T,afii10051,afii10060,afii10036,afii10041,afii10044" 	k="70" />
<hkern g1="r" 	g2="W" 	k="27" />
<hkern g1="r" 	g2="V" 	k="55" />
<hkern g1="r" 	g2="Y" 	k="102" />
<hkern g1="r" 	g2="comma,period,quotesinglbase,quotedblbase,ellipsis" 	k="178" />
<hkern g1="r" 	g2="X,afii10062,afii10024,afii10037,afii10039" 	k="39" />
<hkern g1="s,afii10102" 	g2="question" 	k="96" />
<hkern g1="s,afii10102" 	g2="quotedbl,quotesingle,registered,quoteleft,quoteright,quotedblleft,quotedblright,trademark" 	k="41" />
<hkern g1="s,afii10102" 	g2="T,afii10051,afii10060,afii10036,afii10041,afii10044" 	k="152" />
<hkern g1="s,afii10102" 	g2="W" 	k="100" />
<hkern g1="s,afii10102" 	g2="V" 	k="94" />
<hkern g1="s,afii10102" 	g2="Y" 	k="199" />
<hkern g1="s,afii10102" 	g2="X,afii10062,afii10024,afii10037,afii10039" 	k="14" />
<hkern g1="t" 	g2="T,afii10051,afii10060,afii10036,afii10041,afii10044" 	k="63" />
<hkern g1="t" 	g2="W" 	k="33" />
<hkern g1="t" 	g2="V" 	k="68" />
<hkern g1="t" 	g2="Y" 	k="76" />
<hkern g1="a,u,z,afii10069,afii10074,afii10077,afii10078,afii10079,afii10081,afii10088,afii10089,afii10090,afii10091,afii10093,afii10097,afii10193" 	g2="question" 	k="55" />
<hkern g1="a,u,z,afii10069,afii10074,afii10077,afii10078,afii10079,afii10081,afii10088,afii10089,afii10090,afii10091,afii10093,afii10097,afii10193" 	g2="T,afii10051,afii10060,afii10036,afii10041,afii10044" 	k="139" />
<hkern g1="a,u,z,afii10069,afii10074,afii10077,afii10078,afii10079,afii10081,afii10088,afii10089,afii10090,afii10091,afii10093,afii10097,afii10193" 	g2="W" 	k="61" />
<hkern g1="a,u,z,afii10069,afii10074,afii10077,afii10078,afii10079,afii10081,afii10088,afii10089,afii10090,afii10091,afii10093,afii10097,afii10193" 	g2="V" 	k="115" />
<hkern g1="a,u,z,afii10069,afii10074,afii10077,afii10078,afii10079,afii10081,afii10088,afii10089,afii10090,afii10091,afii10093,afii10097,afii10193" 	g2="Y" 	k="184" />
<hkern g1="v" 	g2="T,afii10051,afii10060,afii10036,afii10041,afii10044" 	k="57" />
<hkern g1="v" 	g2="W" 	k="14" />
<hkern g1="v" 	g2="V" 	k="35" />
<hkern g1="v" 	g2="Y" 	k="123" />
<hkern g1="v" 	g2="A,afii10058,afii10017,afii10021,afii10029" 	k="41" />
<hkern g1="v" 	g2="comma,period,quotesinglbase,quotedblbase,ellipsis" 	k="131" />
<hkern g1="v" 	g2="X,afii10062,afii10024,afii10037,afii10039" 	k="70" />
<hkern g1="w" 	g2="T,afii10051,afii10060,afii10036,afii10041,afii10044" 	k="57" />
<hkern g1="w" 	g2="V" 	k="27" />
<hkern g1="w" 	g2="Y" 	k="123" />
<hkern g1="w" 	g2="A,afii10058,afii10017,afii10021,afii10029" 	k="29" />
<hkern g1="w" 	g2="comma,period,quotesinglbase,quotedblbase,ellipsis" 	k="76" />
<hkern g1="w" 	g2="X,afii10062,afii10024,afii10037,afii10039" 	k="76" />
<hkern g1="y,afii10085,afii10110" 	g2="question" 	k="12" />
<hkern g1="y,afii10085,afii10110" 	g2="T,afii10051,afii10060,afii10036,afii10041,afii10044" 	k="57" />
<hkern g1="y,afii10085,afii10110" 	g2="W" 	k="14" />
<hkern g1="y,afii10085,afii10110" 	g2="V" 	k="27" />
<hkern g1="y,afii10085,afii10110" 	g2="Y" 	k="123" />
<hkern g1="y,afii10085,afii10110" 	g2="A,afii10058,afii10017,afii10021,afii10029" 	k="41" />
<hkern g1="y,afii10085,afii10110" 	g2="comma,period,quotesinglbase,quotedblbase,ellipsis" 	k="111" />
<hkern g1="y,afii10085,afii10110" 	g2="X,afii10062,afii10024,afii10037,afii10039" 	k="70" />
<hkern g1="X,afii10039" 	g2="C,G,O,Q,afii10053,afii10032,afii10035,afii10038" 	k="61" />
<hkern g1="X,afii10039" 	g2="f" 	k="61" />
<hkern g1="X,afii10039" 	g2="t" 	k="61" />
<hkern g1="X,afii10039" 	g2="w,afii10089" 	k="76" />
<hkern g1="X,afii10039" 	g2="v" 	k="70" />
<hkern g1="X,afii10039" 	g2="y,afii10085,afii10110" 	k="70" />
<hkern g1="X,afii10039" 	g2="hyphen,endash,emdash" 	k="94" />
<hkern g1="zero,nine" 	g2="comma,period,quotesinglbase,quotedblbase,ellipsis" 	k="43" />
<hkern g1="seven" 	g2="comma,period,quotesinglbase,quotedblbase,ellipsis" 	k="193" />
<hkern g1="x,afii10087" 	g2="T,afii10051,afii10060,afii10036,afii10041,afii10044" 	k="78" />
<hkern g1="x,afii10087" 	g2="W" 	k="53" />
<hkern g1="x,afii10087" 	g2="V" 	k="53" />
<hkern g1="x,afii10087" 	g2="Y" 	k="158" />
<hkern g1="x,afii10087" 	g2="a,c,d,e,g,o,q,afii10065,afii10070,afii10080,afii10083,afii10086,afii10101" 	k="70" />
<hkern g1="parenleft,bracketleft,braceleft" 	g2="j,afii10105" 	k="-225" />
</font>
</defs></svg> 