<?xml version="1.0" encoding="utf-8"?>
<!-- Generator: Adobe Illustrator 17.0.2, SVG Export Plug-In . SVG Version: 6.00 Build 0)  -->
<!DOCTYPE svg PUBLIC "-//W3C//DTD SVG 1.1//EN" "http://www.w3.org/Graphics/SVG/1.1/DTD/svg11.dtd">
<svg version="1.1" id="Layer_1" xmlns="http://www.w3.org/2000/svg" xmlns:xlink="http://www.w3.org/1999/xlink" x="0px" y="0px"
	 width="30.4px" height="20.2px" viewBox="11.9 -35.3 30.4 20.2" enable-background="new 11.9 -35.3 30.4 20.2"
	 xml:space="preserve">
<line fill="none" stroke="#1f82ff" stroke-width="1.5" stroke-linecap="round" stroke-miterlimit="10" x1="41.5" y1="-25.2" x2="12.6" y2="-25.2"/>
<line fill="none" stroke="#1f82ff" stroke-width="1.5" stroke-linecap="round" stroke-miterlimit="10" x1="12.6" y1="-25.2" x2="22" y2="-15.8"/>
<line fill="none" stroke="#1f82ff" stroke-width="1.5" stroke-linecap="round" stroke-miterlimit="10" x1="12.6" y1="-25.2" x2="22" y2="-34.6"/>
</svg>
